interactions:
- request:
    body: ''
    headers:
      accept:
      - '*/*'
      accept-encoding:
      - gzip, deflate
      connection:
      - keep-alive
      host:
      - api.semanticscholar.org
      user-agent:
      - python-httpx/0.28.1
    method: GET
    uri: https://api.semanticscholar.org/graph/v1/paper/search?query=kubernetes&fields=title&offset=0&limit=100
  response:
    body:
      string: '{"total": 3028, "offset": 0, "next": 100, "data": [{"paperId": "61020665f9134e56009b6e10606fc21348f59d53",
        "title": "Security Misconfigurations in Open Source Kubernetes Manifests:
        An Empirical Study"}, {"paperId": "72fe473b4775a7754b019302d4143e7414d54907",
        "title": "A survey of Kubernetes scheduling algorithms"}, {"paperId": "09bc670eebe5d41038e2025e51f901f69719466a",
        "title": "Kubernetes-Oriented Microservice Placement With Dynamic Resource
        Allocation"}, {"paperId": "cd872b7a59f3de3b8c7c0e3dafff0686236c37d0", "title":
        "Lightweight Kubernetes Distributions: A Performance Comparison of MicroK8s,
        k3s, k0s, and Microshift"}, {"paperId": "8e8c2c59a39476898f9355f7035623afd45b1056",
        "title": "gym-hpa: Efficient Auto-Scaling via Reinforcement Learning for Complex
        Microservice-based Applications in Kubernetes"}, {"paperId": "d11e5c5c08af88ee8abb9ebaa166b1d6fd198501",
        "title": "Kubernetes Scheduling: Taxonomy, Ongoing Issues and Challenges"},
        {"paperId": "cb14a3bc5a603afd02ea40321c9df00f4fed60fe", "title": "AHPA: Adaptive
        Horizontal Pod Autoscaling Systems on Alibaba Cloud Container Service for
        Kubernetes"}, {"paperId": "54b6b766069d50220462dc53f9eca1314822cb28", "title":
        "Software Aging Effects on Kubernetes in Container Orchestration Systems for
        Digital Twin Cloud Infrastructures of Urban Air Mobility"}, {"paperId": "146d185c1f2094d67b7fd367516516aeccea7619",
        "title": "Traffic-Aware Horizontal Pod Autoscaler in Kubernetes-Based Edge
        Computing Infrastructure"}, {"paperId": "8b98ab4bbd671b55deb31bfded827d806e6cad82",
        "title": "Moving Microgrid Hierarchical Control to an SDN-Based Kubernetes
        Cluster: A Framework for Reliable and Flexible Energy Distribution"}, {"paperId":
        "8e853411a33651b57251f5f2bac46b774a180607", "title": "Helm Charts for Kubernetes
        Applications: Evolution, Outdatedness and Security Risks"}, {"paperId": "7edaa7225128ff632f285d2d400631fa3cb68ff9",
        "title": "A Mutation-Enabled Proactive Defense Against Service-Oriented Man-in-The-Middle
        Attack in Kubernetes"}, {"paperId": "7b8b80b8cda90b37db7e2d29e22ac131a165769c",
        "title": "Cost-efficient scheduling algorithms based on beetle antennae search
        for containerized applications in Kubernetes clouds"}, {"paperId": "301c433043fb8e992a0c36e2bb0a2032258e04dd",
        "title": "KubeHound: Detecting Microservices'' Security Smells in Kubernetes
        Deployments"}, {"paperId": "2b179106fd776df712fa6444a2f0f682e016f159", "title":
        "Latency-Aware Kubernetes Scheduling for Microservices Orchestration at the
        Edge"}, {"paperId": "1fd2b68c9f93a6eae65d772f419ba73438fe3f83", "title": "Modeling
        Digital Twins of Kubernetes-Based Applications"}, {"paperId": "1ceb1942910a3a67f2b2401dffde062c16fa4c3c",
        "title": "DRS: A deep reinforcement learning enhanced Kubernetes scheduler
        for microservice-based system"}, {"paperId": "af5c8877c3a5c95c33f98bb5e1c37993047220fd",
        "title": "An Anomaly-based Detection System for Monitoring Kubernetes Infrastructures"},
        {"paperId": "a47eb479a7aa140c14aea10bd5458cf2e0dd575b", "title": "Extending
        Kubernetes Clusters to Low-Resource Edge Devices Using Virtual Kubelets"},
        {"paperId": "84231d32ec1404efe5d61d46851d3c0c6bd588b9", "title": "Kubernetes
        distributions for the edge: serverless performance evaluation"}, {"paperId":
        "4a59e01a614645c53603e1c57aa86bff1301bbe3", "title": "Custom Scheduling in
        Kubernetes: A Survey on Common Problems and Solution Approaches"}, {"paperId":
        "b08d72f2ee0b7a7376a1f79fcb2e01709b719729", "title": "GitOps and Kubernetes
        Operator-based Network Function Configuration"}, {"paperId": "4b0d52da48d315e52fa5b0b48120d57d21e368da",
        "title": "Predictive Auto-scaler for Kubernetes Cloud"}, {"paperId": "8fcff55c706a5e93d7f3958502a302aa208cf41a",
        "title": "Kubernetes and Docker Load Balancing: State-of-the-Art Techniques
        and Challenges"}, {"paperId": "45fe7c9ef33358c61bad046eafaedef08bdf732f",
        "title": "ElasticDL: A Kubernetes-native Deep Learning Framework with Fault-tolerance
        and Elastic Scheduling"}, {"paperId": "fcf59eeb91f235d4ebe65330e9577d7b384a5b11",
        "title": "Security automation for multi-cluster orchestration in Kubernetes"},
        {"paperId": "87b54cc8e3e7bd7af0e535e696e5927dafe2058f", "title": "Adaptive
        Resource Allocation for Workflow Containerization on Kubernetes"}, {"paperId":
        "7f6392712b3cf31ebb88c8d0b52dbef69a71f606", "title": "Enabling P4 Network
        Telemetry in Edge Micro Data Centers With Kubernetes Orchestration"}, {"paperId":
        "02eda37891acdbd899aa6c01249917ba94449151", "title": "Toward Optimal Load
        Prediction and Customizable Autoscaling Scheme for Kubernetes"}, {"paperId":
        "15a479da1d81b0241033c3b1ff9b073cb652f8f3", "title": "Network Functions in
        Cloud: Kubernetes Deployment Challenges"}, {"paperId": "1d7b3f25e18273abd56cec780f07de878a21c453",
        "title": "Characterization of Microservice Response Time in Kubernetes: A
        Mixture Density Network Approach"}, {"paperId": "aa03721dcdb3448c3a796e78eb7e4e2b9895539c",
        "title": "Delay-Aware Container Scheduling in Kubernetes"}, {"paperId": "f191183fbe43a88268d671642a7d66a461b69e3a",
        "title": "RobotKube: Orchestrating Large-Scale Cooperative Multi-Robot Systems
        with Kubernetes and ROS"}, {"paperId": "a7934d1e2f0f45d78539b012e58106bb2a590937",
        "title": "Predicting Resource Consumption of Kubernetes Container Systems
        using Resource Models"}, {"paperId": "f3dd2eb71cbc1eb2dac353b6ed9bb16ccbdad625",
        "title": "RT-kubernetes: containerized real-time cloud computing"}, {"paperId":
        "bf6b72e287829faa0e25f41a5e5c536a3643bb26", "title": "Load-Balancing of Kubernetes-Based
        Edge Computing Infrastructure Using Resource Adaptive Proxy"}, {"paperId":
        "2a6ec82796374f5d92602506d38e7362effbea4b", "title": "Evaluating Kubernetes
        at the Edge for Fault Tolerant Multi-Camera Computer Vision Applications"},
        {"paperId": "2a7396b670ac72d37afbf5da2925116d35a4030a", "title": "An Overview
        of Container Security in a Kubernetes Cluster"}, {"paperId": "3ade5628c9a1736a13cbca3f60aaf967da6b9a20",
        "title": "A Comparative Analysis on Load Balancing and gRPC Microservices
        in Kubernetes"}, {"paperId": "dd0710b39dccea110fde761ae0536b8678a8731c", "title":
        "Software for Improve the Security of Kubernetes-based CI/CD Pipeline"}, {"paperId":
        "67e35a723d884a5ebd25f06db3a4468957c711e5", "title": "Carbon emission-aware
        job scheduling for Kubernetes deployments"}, {"paperId": "c79d433dc5cad8a4dd3a1baf98403b90f193a093",
        "title": "Shared Resource Orchestration Extensions for Kubernetes to Support
        Real-Time Cloud Containers"}, {"paperId": "321b33e083406ffb5b700f27e692986c2955130a",
        "title": "Privacy Preservation in Kubernetes-based Federated Learning: A Networking
        Approach"}, {"paperId": "293ea3c3ed3a22c5407c05c2c4cfaca659501058", "title":
        "Role-based Access Control (RBAC) Authorization in Kubernetes"}, {"paperId":
        "5b6cc985d757fd92e1b0b500ff404a0abae3aee5", "title": "OpenFog-Compliant Application-Aware
        Platform: A Kubernetes Extension"}, {"paperId": "a0b163591c81d80815157bf6752c1a042bdb5125",
        "title": "Take Over the Whole Cluster: Attacking Kubernetes via Excessive
        Permissions of Third-party Applications"}, {"paperId": "deab694f30f57f73d7ba882328b175aa1c0e9f34",
        "title": "A Customized Kubernetes Scheduling Algorithm to Improve Resource
        Utilization of Nodes"}, {"paperId": "0bd9e0ab083e78b6513b5f40381dd4b2a53aed02",
        "title": "Distributed file systems performance tests on Kubernetes/Docker
        clusters"}, {"paperId": "96985222d4e554ba2495a2401db7834abd7c1ac7", "title":
        "Warping the Defence Timeline: Non-Disruptive Proactive Attack Mitigation
        for Kubernetes Clusters"}, {"paperId": "49aed5307f86a9600b0526ca44bd0f5b75fbbb75",
        "title": "Multi-Application Hierarchical Autoscaling for Kubernetes Edge Clusters"},
        {"paperId": "40e9ecd94713aa6756e6ae128982ed0d572d3951", "title": "Challenges
        in service discovery for microservices deployed in a Kubernetes cluster \u2013
        a case stud"}, {"paperId": "5d17d6a3941e438eeb64a6e65440d9e3441134c5", "title":
        "Kubernetes Cluster Disaster Recovery Using AWS"}, {"paperId": "a2119b5e35f6004702cb4f03ed63af244bef0da6",
        "title": "Kubernetes-in-the-Loop: Enriching Microservice Simulation Through
        Authentic Container Orchestration"}, {"paperId": "6e48eb5cf6d1def8f566b967144d135e47305f02",
        "title": "Detection of Denial of Service Attack in Cloud Based Kubernetes
        Using eBPF"}, {"paperId": "36d303886069d568f436bcaf19ff07040f527482", "title":
        "Exploring the Performance of Container Runtimes within Kubernetes Clusters"},
        {"paperId": "a3f5497447d9486871fd06de44041c797b54d47d", "title": "Proactive
        Horizontal Pod Autoscaling in Kubernetes using Bi-LSTM"}, {"paperId": "989f5f5e9639623b669171e793eee987e3222e91",
        "title": "Istio API Gateway Impact to Reduce Microservice Latency and Resource
        Usage on Kubernetes"}, {"paperId": "b61e92161fe5b2ccefc45f4fc0535fb2d4ccaa27",
        "title": "Automatic Deployment to Kubernetes Cluster by Applying a New Learning
        Tool and Learning Processes"}, {"paperId": "8624d6e9cbee7e6d1b317bbe220bc39698196849",
        "title": "NoSQL Databases in Kubernetes"}, {"paperId": "2b2111340cb845e6d1e339d25bff2076faec0fc1",
        "title": "A case analysis for Kubernetes network security of financial service
        industry in Indonesia using zero trust model"}, {"paperId": "e6949a07bacddba28eabf8acbbaa46d33b792a21",
        "title": "Network SLO-aware container scheduling in Kubernetes"}, {"paperId":
        "d6a9fea83f4edc32ca3b596d481176d53c40da0d", "title": "Securing Kubernetes
        Pods communicating over Weave Net through eBPF/XDP from DDoS attacks"}, {"paperId":
        "792a0c53f66256e4dd2525f6bf9bf144f609eaf7", "title": "Running Kubernetes Workloads
        on HPC"}, {"paperId": "10420e32aa2d8d9c9648418c2db4e50126881333", "title":
        "Seamless Hardware-Accelerated Kubernetes Networking"}, {"paperId": "2f1c0cd900bafe01e8bfdf3e3726e8d134959222",
        "title": "Proposal of Docker and Kubernetes Direction through the Event Timeline
        of Kubernetes"}, {"paperId": "0aed0692288e5b84a622b7318d72efdc12408bd1", "title":
        "Container Instrumentation and Enforcement System for Runtime Security of
        Kubernetes Platform with eBPF"}, {"paperId": "8f9c86fab5466d506fa5a820f294db4638683f72",
        "title": "A Design Flow based on Docker and Kubernetes for ROS-based Robotic
        Software Applications"}, {"paperId": "3c8baa86d137c0270626618aee26c50e8a25eb8f",
        "title": "Network-Aware Container Placement in Cloud-Edge Kubernetes Clusters"},
        {"paperId": "4a5127405d01397c66b647c88a07684a65b825d8", "title": "KFIML: Kubernetes-Based
        Fog Computing IoT Platform for Online Machine Learning"}, {"paperId": "796d0692b9c4a4d0c4543e98517c360796ae1670",
        "title": "A Survey of Autoscaling in Kubernetes"}, {"paperId": "83d5a9faeb733b876506cb741781faea77380357",
        "title": "Mobile-Kube: Mobility-aware and Energy-efficient Service Orchestration
        on Kubernetes Edge Servers"}, {"paperId": "c5d1825555ad1c38501d67496e2cdc251d2d6de4",
        "title": "Stay at the Helm: secure Kubernetes deployments via graph generation
        and attack reconstruction"}, {"paperId": "46aeff64618ed8d4306f52b3c2842145f394bd15",
        "title": "Machine Learning-Based Scaling Management for Kubernetes Edge Clusters"},
        {"paperId": "6b5ce28547bdba5b6ab872b6eec78bcdb785985f", "title": "Kubernetes
        Orchestration of High Availability Distributed Control Systems"}, {"paperId":
        "1963447ce4a5f2e96d91fee4fcf8706d6cc9654f", "title": "Proactive Stateful Fault-Tolerant
        System for Kubernetes Containerized Services"}, {"paperId": "fadca715f4d0c5da0890d18caf588a4b3c402ddf",
        "title": "Good Shepherds Care For Their Cattle: Seamless Pod Migration in
        Geo-Distributed Kubernetes"}, {"paperId": "96f380bcffe3439132410ca3fcc4bf7ecbc14b50",
        "title": "Cloud-Edge Orchestration for Smart Cities: A Review of Kubernetes-based
        Orchestration Architectures"}, {"paperId": "467522a1cca7a7f852f50c46f6dc47ef4ddc8287",
        "title": "Autoscaling pods on an on-premise Kubernetes infrastructure QoS-aware"},
        {"paperId": "dfd20bb2c1014b985ddd18a9a86ab6b328abc2df", "title": "Kub-Sec,
        an automatic Kubernetes cluster AppArmor profile generation engine"}, {"paperId":
        "c2f4cc1ecc562655131715ccd599d2125633b9ae", "title": "KubeSC\u2010RTP: Smart
        scheduler for Kubernetes platform on CPU\u2010GPU heterogeneous systems"},
        {"paperId": "a32ced945fd5fb143b1877c97f8bd87ade457dfb", "title": "DeepCell
        Kiosk: scaling deep learning\u2013enabled cellular image analysis with Kubernetes"},
        {"paperId": "1c3fae8ba3faf136097663c8d53ec062be6e35c3", "title": "PERBANDINGAN
        KINERJA API MICROSERVICE PADA JAVA SPRINGBOOT 3 MENGGUNAKAN GRAALVM DAN JVM
        PADA SERVER MESIN KUBERNETES"}, {"paperId": "601011178c174bfc9b1c36220032ce8fb198530d",
        "title": "Kubernetes as a Standard Container Orchestrator - A Bibliometric
        Analysis"}, {"paperId": "967ad7c688e14744ead48b774d4b8a020536a686", "title":
        "A Kubernetes \u2018Bridge\u2019 Operator between Cloud and External Resources"},
        {"paperId": "d8bcd84314397c1c0901154c49c2b74a9ab18e81", "title": "Adapting
        Kubernetes controllers to the edge: on-demand control planes using Wasm and
        WASI"}, {"paperId": "dc5677bb7fa9590124cf8e21481ebd2460593ed9", "title": "A
        Web-based Orchestrator for Dynamic Service Function Chaining Development with
        Kubernetes"}, {"paperId": "03e48e840db3e98b517768a4ae88ae95c080aa21", "title":
        "Framework to Deploy Containers using Kubernetes and CI/CD Pipeline"}, {"paperId":
        "60f4ad8ee25168e61caddf12571f65f48adeec6f", "title": "Analyzing and Monitoring
        Kubernetes Microservices based on Distributed Tracing and Service Mesh"},
        {"paperId": "64c07170aa613cd16a1ae0a8dd17cf9aa277f3ff", "title": "KubeAdaptor:
        A Docking Framework for Workflow Containerization on Kubernetes"}, {"paperId":
        "e977c0d25c5aeb9ccea264a231922dd24d3b14a3", "title": "Tailored Learning-Based
        Scheduling for Kubernetes-Oriented Edge-Cloud System"}, {"paperId": "310524cfb26eac75daf1710207ed96bd0df0320a",
        "title": "Deep learning based resource forecasting for 5G core network scaling
        in Kubernetes environment"}, {"paperId": "aade0f94c9b68cd6eae361d5183825951f9bf9f2",
        "title": "Micro-Service Placement Policies for Cost Optimization in Kubernetes"},
        {"paperId": "74abafe4960d6e6c594ff8f3b1bfdfcfc24a7576", "title": "K-AGRUED:
        A Container Autoscaling Technique for Cloud-based Web Applications in Kubernetes
        Using Attention-based GRU Encoder-Decoder"}, {"paperId": "4144c2213394ef924b0ee478796b91c663873101",
        "title": "Rearchitecting Kubernetes for the Edge"}, {"paperId": "26042d586014dbb48f3460dbc4e9ef6e3ae517d1",
        "title": "Evaluating operational readiness using chaos engineering simulations
        on Kubernetes architecture in Big Data"}, {"paperId": "b22ceba0af15b3583dfba3c3f5f8395235270bfd",
        "title": "On the performance of SQL scalable systems on Kubernetes: a comparative
        study"}, {"paperId": "0ad3863062dbe5119c71b448164c5f842f9c7c8b", "title":
        "Profiling Lightweight Container Platforms: MicroK8s and K3s in Comparison
        to Kubernetes"}, {"paperId": "9430ebc9985d455e33e2e4820d1a96deed289929", "title":
        "NetMARKS: Network Metrics-AwaRe Kubernetes Scheduler Powered by Service Mesh"},
        {"paperId": "3985916d3a7d2a941af161e8734570bc608612b9", "title": "Horizontal
        Pod Autoscaling based on Kubernetes with Fast Response and Slow Shrinkage"},
        {"paperId": "a8da6903b072ccff10700a8d1d9097cd3c2f8e57", "title": "Enhancing
        CNF performance for 5G core network using SR-IOV in Kubernetes"}]}

        '
    headers:
      Access-Control-Allow-Origin:
      - '*'
      Connection:
      - keep-alive
      Content-Length:
      - '15100'
      Content-Type:
      - application/json
      Date:
      - Sun, 08 Dec 2024 02:25:51 GMT
      Via:
      - 1.1 04d6bb773b5e7e57636695458b3a4bd8.cloudfront.net (CloudFront)
      X-Amz-Cf-Id:
      - PwWjctMSfcE04Kc5zAFvMffUl_UsDcvfnBsS0iJuugIOcSjCbX3h7g==
      X-Amz-Cf-Pop:
      - GRU3-P4
      X-Cache:
      - Miss from cloudfront
      x-amz-apigw-id:
      - Cc2DWGyDvHcELtQ=
      x-amzn-Remapped-Connection:
      - keep-alive
      x-amzn-Remapped-Content-Length:
      - '15100'
      x-amzn-Remapped-Date:
      - Sun, 08 Dec 2024 02:25:51 GMT
      x-amzn-Remapped-Server:
      - gunicorn
      x-amzn-RequestId:
      - c2f9804b-90b8-4984-82f5-d02b29392905
    status:
      code: 200
      message: OK
version: 1
