interactions:
- request:
    body: ''
    headers:
      accept:
      - '*/*'
      accept-encoding:
      - gzip, deflate
      connection:
      - keep-alive
      host:
      - api.semanticscholar.org
      user-agent:
      - python-httpx/0.28.1
    method: GET
    uri: https://api.semanticscholar.org/graph/v1/paper/search?query=turing&venue=ArXiv&fields=venue&offset=0&limit=100
  response:
    body:
      string: '{"total": 839, "offset": 0, "next": 100, "data": [{"paperId": "7cbc2a7843411a1768ab762930707af0a3c33a19",
        "venue": "arXiv.org"}, {"paperId": "79bae31ed966a7a97dbea7292e17fa6274122100",
        "venue": "arXiv.org"}, {"paperId": "c1126fbffd6b8547a44c58b192b36b08b18299de",
        "venue": "arXiv.org"}, {"paperId": "2da3a84e72a2973504cd9cf1c0a377f5a5a91f09",
        "venue": "arXiv.org"}, {"paperId": "82a25ba09303b0c26d4ca8abd7871fa71799da66",
        "venue": "arXiv.org"}, {"paperId": "3452746bfda18dd59dad9ce5a5802f721a10a4d4",
        "venue": "arXiv.org"}, {"paperId": "573412866a3c60a2ec20f0e66babcb1743f63442",
        "venue": "arXiv.org"}, {"paperId": "4c18561f8693330d0eaef3278fcceef205b1d5b5",
        "venue": "arXiv.org"}, {"paperId": "0cbc09097c340f3d54e30dba7347abe3129afa53",
        "venue": "arXiv.org"}, {"paperId": "74de8a496f9e921464044b9050f73e6b17130ca9",
        "venue": "arXiv.org"}, {"paperId": "64660987ee2a526ab343f2df7310bf03a0576903",
        "venue": "arXiv.org"}, {"paperId": "820926337196f774603a236deec2d99901f790c6",
        "venue": "arXiv.org"}, {"paperId": "c19382eb26ee614a77b6ad52d525b5fa88ebc924",
        "venue": "arXiv.org"}, {"paperId": "e05c643afd4a2c1889b7f7e3f90ce712026e1d4c",
        "venue": "arXiv.org"}, {"paperId": "842518e260c406f8f17d04a4fcb64a04050b67cd",
        "venue": "arXiv.org"}, {"paperId": "da7a38d370b7e3d00ab2869b4832d8dda8fb94d3",
        "venue": "arXiv.org"}, {"paperId": "dc9f9ea229b5e515e89714a538f9f449c8afd1d0",
        "venue": "arXiv.org"}, {"paperId": "c826052d61a2004107335d0a0190b09e65e4f83e",
        "venue": "arXiv.org"}, {"paperId": "4d63eef4c51a1d88e2f5060e93de4ac440dca099",
        "venue": "arXiv.org"}, {"paperId": "f73d3129d78cffd9baf3a2eb6dabcb8176a28892",
        "venue": "arXiv.org"}, {"paperId": "e64959bee8eb02ce5f224e80b8e99282c576bcb3",
        "venue": "arXiv.org"}, {"paperId": "689857cd0447e43892b20cba03fb89f7b07f1536",
        "venue": "arXiv.org"}, {"paperId": "f5e4184ff3d7589e7416589e0a7853e314f21c9b",
        "venue": "arXiv.org"}, {"paperId": "74d06c6a1c56d7bc819d057623d381edf9346736",
        "venue": "arXiv.org"}, {"paperId": "836e7a4e2e290910d967e904b0930ddb104071a5",
        "venue": "arXiv.org"}, {"paperId": "7849726f7176d93b770221f1d9e76129d95af6e2",
        "venue": "arXiv.org"}, {"paperId": "bc0210361535562dac14987da8a91c7839533682",
        "venue": "arXiv.org"}, {"paperId": "37371d64ae7a73f8bad43482dce40fa6485d9d6f",
        "venue": "arXiv.org"}, {"paperId": "cc3461f286d57aea512837ed2d88d11f552efb5f",
        "venue": "arXiv.org"}, {"paperId": "246810f567b3e49164b1ffdedc911d6af0d1b144",
        "venue": "arXiv.org"}, {"paperId": "505c7b471457ac447efdb9abc714247dd10dbef8",
        "venue": "arXiv.org"}, {"paperId": "ffb127811ec6843b51b9e5f19f37223de531e3d5",
        "venue": "arXiv.org"}, {"paperId": "51fb89610710d7c4d25ce02de9f563cca4a5fecc",
        "venue": "arXiv.org"}, {"paperId": "3ac616dba642e2e7e401a557c00c9990df458051",
        "venue": "arXiv.org"}, {"paperId": "335094aecbee9a8fabec0a1aa680ac411c88b596",
        "venue": "arXiv.org"}, {"paperId": "673ae48c525fd981df2e2cd6c5811342c829fb89",
        "venue": "arXiv.org"}, {"paperId": "00fadf4763052274b7b86d8436fabce53d6086bd",
        "venue": "arXiv.org"}, {"paperId": "01baca4fa7ad5d28b95f6f72fe33de9a34633bc6",
        "venue": "arXiv.org"}, {"paperId": "512da1da45b9f2046933cf98abf2f2a2b246d071",
        "venue": "arXiv.org"}, {"paperId": "9edde886e79bc7ee31963007501b1d205a9b4e18",
        "venue": "arXiv.org"}, {"paperId": "05493637ababe133cb14eec1f831d1b4a5acea9d",
        "venue": "arXiv.org"}, {"paperId": "16dc8bb08da5bdc31abc03b66c3c6bcabb869907",
        "venue": "arXiv.org"}, {"paperId": "662640d8e52660a176fa27610c68316a40b30cde",
        "venue": "arXiv.org"}, {"paperId": "4b070ed68c38840276830b10c700c0ffc788aeb9",
        "venue": "arXiv.org"}, {"paperId": "b6ae96883ac4a82a92d6b91022a1d924ac142752",
        "venue": "arXiv.org"}, {"paperId": "2972c1f7a15cf429611be8992f4244df0fec08bd",
        "venue": "arXiv.org"}, {"paperId": "27ca01426560e900445687168d9803c08e092da8",
        "venue": "arXiv.org"}, {"paperId": "71aff17aa16b589076b50d5c6c9e32565cec9f88",
        "venue": "arXiv.org"}, {"paperId": "e92c2dd179c828cefa31b4f50a8fad2bfdce88ae",
        "venue": "arXiv.org"}, {"paperId": "1c3fe131ab90b6e85c6477744c9461e629632e0a",
        "venue": "arXiv.org"}, {"paperId": "a73ca9c6812e10545e4185656ddb6afa1d356350",
        "venue": "arXiv.org"}, {"paperId": "a58f2c90fbeaca660c9ce79f41a587bef20e7698",
        "venue": "arXiv.org"}, {"paperId": "74a2565f7d2b3e57e899f8577914015b8721fa64",
        "venue": "arXiv.org"}, {"paperId": "574cddb0d56fa84708b259dcd2d81473b810e7ad",
        "venue": "arXiv.org"}, {"paperId": "18f7745ee7f7e8849d6d8250ad9d2d5e72661006",
        "venue": "arXiv.org"}, {"paperId": "4ab14b6585f85c2121ba5d3900e8c8d00fb80dfe",
        "venue": "arXiv.org"}, {"paperId": "a9449bf585120b910cff9e98a7d60d853581a255",
        "venue": "arXiv.org"}, {"paperId": "b910f67b8c2b2041c266305511e8a65a7c832b55",
        "venue": "arXiv.org"}, {"paperId": "040c88bc1ed507c42d995d45b545ab86205ef1c4",
        "venue": "arXiv.org"}, {"paperId": "37c37255fcdfea3dc18cb360f3c27643710ae072",
        "venue": "arXiv.org"}, {"paperId": "bb1fe9432657a641635fa745de9fc0d1f22316ac",
        "venue": "arXiv.org"}, {"paperId": "cbddbb34da264c489eb307f49143044fae3a785a",
        "venue": "arXiv.org"}, {"paperId": "4df2147a463d6ed21aeb5bcb7a969da857ce6699",
        "venue": "arXiv.org"}, {"paperId": "bcfbb278976103cc7554b2e560c20a2d07eb5977",
        "venue": "arXiv.org"}, {"paperId": "49b19576b71cc25877e341d7b7267349de3c2cca",
        "venue": "arXiv.org"}, {"paperId": "1d6b35c73bcdbe0a55de3ce5d9b8a5edf3ca1a58",
        "venue": "arXiv.org"}, {"paperId": "314e76f1df702702cc2de8661caebab1beb5a32d",
        "venue": "arXiv.org"}, {"paperId": "bca2348d548194beb6134b337ac57d861cc4a3a6",
        "venue": "arXiv.org"}, {"paperId": "39512882e97addfc5fbc1c733ff8494362041a2c",
        "venue": "arXiv.org"}, {"paperId": "577349e25391605c0318b3583983e0f35fe5acae",
        "venue": "arXiv.org"}, {"paperId": "58f3f0d11ddfd2243d64f9bf1abb761abda2a131",
        "venue": "arXiv.org"}, {"paperId": "2ca09ee92154b4480230654989a3ecec6b29ef10",
        "venue": "arXiv.org"}, {"paperId": "2f42a30a04fa3747fc4fdc07b7793a1fcc50cb5a",
        "venue": "arXiv.org"}, {"paperId": "1ab5ef5ab882aabb392454fc6c7ee542a4b1e830",
        "venue": "arXiv.org"}, {"paperId": "fb1c54422404d40b0509b4f13c0a25741cbf7dc1",
        "venue": "arXiv.org"}, {"paperId": "9b15d747d8341cc12e74a9dc539f93d57842cf21",
        "venue": "arXiv.org"}, {"paperId": "1fab97516e0545cbe879739c1228f286f8c4b9fe",
        "venue": "arXiv.org"}, {"paperId": "c9d7afd65b2127e6f0651bc7e13eeec1897ac8dd",
        "venue": "arXiv.org"}, {"paperId": "fc93be22e9be433ce7d224175e23814e296823c5",
        "venue": "arXiv.org"}, {"paperId": "2c9bc37ffb555ca327aeebf769f2436fac1685d2",
        "venue": "arXiv.org"}, {"paperId": "dda1822872942f658b89e7e1c1ffe08c35e7b290",
        "venue": "arXiv.org"}, {"paperId": "b4240aecb20ba5f7575c0d68999337f7a8d811c7",
        "venue": "arXiv.org"}, {"paperId": "839e30cc776a999a1a6da72621d52d3a556ad1c7",
        "venue": "arXiv.org"}, {"paperId": "906ac7584faf8ead6004be4cc5122320c87df59c",
        "venue": "arXiv.org"}, {"paperId": "e4d23379621a978fb51c4ddd727cda1da8dc428c",
        "venue": "arXiv.org"}, {"paperId": "20b7ccf5b76d876973d6ba82c8fa3a1b9b16aa34",
        "venue": "arXiv.org"}, {"paperId": "154e736e2ddbcd71e090403e9b28b26d52ec0d55",
        "venue": "arXiv.org"}, {"paperId": "45c182f8d003a2d505e4d1d491b5d03159a70b81",
        "venue": "arXiv.org"}, {"paperId": "89f5af9fc5a8d79f89b53886f1ad18804696b70f",
        "venue": "arXiv.org"}, {"paperId": "f963ad52f13e7edae84743e31381fff5b77bede5",
        "venue": "arXiv.org"}, {"paperId": "bf3a6bb7afffadb93013844f64bb9c40911325df",
        "venue": "arXiv.org"}, {"paperId": "6a10ce04a28d2b34c102133fcf94ff299d1e1780",
        "venue": "arXiv.org"}, {"paperId": "445dbe5368386e984a019fd4f372950836274cdb",
        "venue": "arXiv.org"}, {"paperId": "1335201fb3ed413fa7879d732bc47623c65d2683",
        "venue": "arXiv.org"}, {"paperId": "10234b876b1e0cec42db32f560f8a8cbae7d40cf",
        "venue": "arXiv.org"}, {"paperId": "be79587fc3e70700fb78481f0e602f7b074fee25",
        "venue": "arXiv.org"}, {"paperId": "b6496718fc89f5c096bbb6706bb7d676c599a5f9",
        "venue": "arXiv.org"}, {"paperId": "2ccd1a446c3e512104a6cfdc6367ec435b803bd9",
        "venue": "arXiv.org"}, {"paperId": "8ff2ed2ac3b5c91261fd1f8b5694b12886aeca95",
        "venue": "arXiv.org"}, {"paperId": "575a082dd24730dfc1c4bae27cd6fa0142028050",
        "venue": "arXiv.org"}]}

        '
    headers:
      Access-Control-Allow-Origin:
      - '*'
      Connection:
      - keep-alive
      Content-Length:
      - '7951'
      Content-Type:
      - application/json
      Date:
      - Sun, 08 Dec 2024 02:18:56 GMT
      Via:
      - 1.1 511f4533b3bef5048d9873c32cb4b8d2.cloudfront.net (CloudFront)
      X-Amz-Cf-Id:
      - 9lCrXFu1VPORjt84u7IdVndcGWKffe-ijGHaujQehnw9d3kC2o2q9w==
      X-Amz-Cf-Pop:
      - GRU3-P4
      X-Cache:
      - Miss from cloudfront
      x-amz-apigw-id:
      - Cc1CkHZEPHcEWUg=
      x-amzn-Remapped-Connection:
      - keep-alive
      x-amzn-Remapped-Content-Length:
      - '7951'
      x-amzn-Remapped-Date:
      - Sun, 08 Dec 2024 02:18:56 GMT
      x-amzn-Remapped-Server:
      - gunicorn
      x-amzn-RequestId:
      - 6bc34032-8c1e-44f5-b527-b0def7a9a1d9
    status:
      code: 200
      message: OK
version: 1
