interactions:
- request:
    body: ''
    headers:
      accept:
      - '*/*'
      accept-encoding:
      - gzip, deflate
      connection:
      - keep-alive
      host:
      - api.semanticscholar.org
      user-agent:
      - python-httpx/0.28.1
    method: GET
    uri: https://api.semanticscholar.org/graph/v1/paper/search?query=turing&publicationTypes=JournalArticle&fields=publicationTypes&offset=0&limit=100
  response:
    body:
      string: '{"total": 15596, "offset": 0, "next": 100, "data": [{"paperId": "7cbc2a7843411a1768ab762930707af0a3c33a19",
        "publicationTypes": ["JournalArticle"]}, {"paperId": "f1328e67a62218c365a5945d58123634db1895be",
        "publicationTypes": ["JournalArticle", "Review"]}, {"paperId": "fdbe8d1896b754125c6255f07bd9fecc2ea59127",
        "publicationTypes": ["JournalArticle", "Review"]}, {"paperId": "a6a48900de1da2d1a51b1a7d566c01c75977852b",
        "publicationTypes": ["JournalArticle", "News"]}, {"paperId": "bba46cd6993a9f86d76568afd1aea0aa2132d260",
        "publicationTypes": ["JournalArticle"]}, {"paperId": "c1126fbffd6b8547a44c58b192b36b08b18299de",
        "publicationTypes": ["JournalArticle"]}, {"paperId": "10622a3158756a017a2eea14f87190c236da2915",
        "publicationTypes": ["JournalArticle"]}, {"paperId": "883e238d17dd486435587ec4a19abaabce3c8a2c",
        "publicationTypes": ["JournalArticle"]}, {"paperId": "b60ab200d24faf6dd20cafe234ccb43e23cf39d2",
        "publicationTypes": ["JournalArticle"]}, {"paperId": "292da1c4640c105aa5d7919a1ded9a1225c07d4d",
        "publicationTypes": ["JournalArticle"]}, {"paperId": "331fa9e381cd219a3961cd5ef7dda401e8751606",
        "publicationTypes": ["JournalArticle"]}, {"paperId": "7845bfb55f5ce573b87d77bb76d4d38829b37620",
        "publicationTypes": ["JournalArticle", "Conference"]}, {"paperId": "c4cb90a67f45e7cbacb5286e934b309e89843922",
        "publicationTypes": ["JournalArticle"]}, {"paperId": "9cd1dfaa3c86c71ae74b4c02ebc59cb56c4a396d",
        "publicationTypes": ["JournalArticle"]}, {"paperId": "01fe5977a3ec7d231e72cecef06501590f9f6c1b",
        "publicationTypes": ["JournalArticle"]}, {"paperId": "0e9ac2cfc5a3ecb66eeace720901390f7809ba0a",
        "publicationTypes": ["JournalArticle"]}, {"paperId": "6e297ddd30f2fce82d2146b215dbe22dac22bd2e",
        "publicationTypes": ["JournalArticle"]}, {"paperId": "59d9473f91d386176223fb8be06d9ba5f8fc9744",
        "publicationTypes": ["JournalArticle"]}, {"paperId": "d6a59868ed67dc581b3a721824c130490ea74566",
        "publicationTypes": ["JournalArticle", "Review"]}, {"paperId": "a9e9b6e7603268c924016dc94a79cdb39d85c165",
        "publicationTypes": ["JournalArticle"]}, {"paperId": "220068be6ef897b2b38db687a922423d6693ed9c",
        "publicationTypes": ["Review", "JournalArticle"]}, {"paperId": "12c3f818430ffccd1cac64b6e91a750350917d27",
        "publicationTypes": ["JournalArticle"]}, {"paperId": "473928f705f909a59fe7eee993223c70b58022f8",
        "publicationTypes": ["JournalArticle", "Review"]}, {"paperId": "59165a086cf3c68cae52dc1733cf2b76b48dad87",
        "publicationTypes": ["JournalArticle", "Review"]}, {"paperId": "0fc02e38e34ff9072a7234f1c8c5fa208a46ffc5",
        "publicationTypes": ["JournalArticle"]}, {"paperId": "13f111c03b1c5c64078d2672dc8bb388b81d5a79",
        "publicationTypes": ["JournalArticle", "Review"]}, {"paperId": "bfdfd83ddcfa5763ef44895047c0e3ee90e28d85",
        "publicationTypes": ["JournalArticle", "Book"]}, {"paperId": "3694381e74445a8b9f8cb8d373e39626e47191b5",
        "publicationTypes": ["JournalArticle"]}, {"paperId": "339c6e6d46836c173fb6a23b493c724896d4cc70",
        "publicationTypes": ["JournalArticle", "Conference"]}, {"paperId": "970db33809cdb96315885222ec80edb56f2fc8b7",
        "publicationTypes": ["JournalArticle"]}, {"paperId": "01baca4fa7ad5d28b95f6f72fe33de9a34633bc6",
        "publicationTypes": ["JournalArticle"]}, {"paperId": "75493a3ed750269a2056b3e39a877bc8b00bc50d",
        "publicationTypes": ["JournalArticle"]}, {"paperId": "a84f376a8217a10ade875966eb18e1c851cfee66",
        "publicationTypes": ["JournalArticle"]}, {"paperId": "71c076b4c606174a6e83d7d64d2064827d6b6d11",
        "publicationTypes": ["JournalArticle"]}, {"paperId": "bbe926c080c5cc5d68cf98df933741e3c024e1a0",
        "publicationTypes": ["JournalArticle"]}, {"paperId": "6a5ea3c1f4256e8987db0de47cf1e787032ca400",
        "publicationTypes": ["JournalArticle"]}, {"paperId": "5ad36475e45e3f17be1d5cd5a77154cfba2a6994",
        "publicationTypes": ["JournalArticle", "Book"]}, {"paperId": "74e281384ed8340956989bc2a93f8387458a09bf",
        "publicationTypes": ["JournalArticle"]}, {"paperId": "3bb868dc65ddd7d3229f8a07f82b152ac304aba2",
        "publicationTypes": ["JournalArticle"]}, {"paperId": "0428f47bee696073ef304c2b32d60704b85144dc",
        "publicationTypes": ["JournalArticle"]}, {"paperId": "47973a6fb5baa95d494826f8256265a566a2d384",
        "publicationTypes": ["JournalArticle"]}, {"paperId": "cc7df30dfb767f67b42930ef57407ebabb052723",
        "publicationTypes": ["JournalArticle"]}, {"paperId": "6cda6bf951da823ab8673e659bdca13b9928ed47",
        "publicationTypes": ["JournalArticle"]}, {"paperId": "92ac61b13eab6a710ac8253ad549df38ff7802c8",
        "publicationTypes": ["JournalArticle"]}, {"paperId": "5045c73f6b9342a10bc565f4a1c0ed325fda53c3",
        "publicationTypes": ["JournalArticle"]}, {"paperId": "b0e69af8e8f7f2501cb26290e57a8563dba5d178",
        "publicationTypes": ["JournalArticle"]}, {"paperId": "64f47687daaa84ac1fdb1bc2f85c065007163f06",
        "publicationTypes": ["JournalArticle"]}, {"paperId": "5d1d3b3fe834f66ffdb8c8855745038f52a58e4b",
        "publicationTypes": ["JournalArticle", "Study"]}, {"paperId": "ef2dde81f9c215e0a69dd81ca9222ca178fe42ce",
        "publicationTypes": ["JournalArticle"]}, {"paperId": "97b47dc9bc0da49f83a7ef2e9d2ac461c222dd73",
        "publicationTypes": ["JournalArticle"]}, {"paperId": "ad9ed24d729c70f0f1a97106da03c60de9e9dbb7",
        "publicationTypes": ["JournalArticle"]}, {"paperId": "fc4e79529970e6aef061d74afe7b43a8daa4ab61",
        "publicationTypes": ["JournalArticle"]}, {"paperId": "1606575fc6f337bde02291a4bf928eb16f58d0e6",
        "publicationTypes": ["JournalArticle", "Conference"]}, {"paperId": "fe1077f6b79e14457db77d7477a477f40f87e7e6",
        "publicationTypes": ["JournalArticle"]}, {"paperId": "f0b854a31c23e4f77e25248190897fafc436f5fb",
        "publicationTypes": ["JournalArticle"]}, {"paperId": "1f297e4c32517e88877ddee9728dbbcc4ff6d06a",
        "publicationTypes": ["JournalArticle"]}, {"paperId": "079adfb4ec1a617935f4c74763ed57ba0eedecff",
        "publicationTypes": ["JournalArticle"]}, {"paperId": "fb7dd3ec9cc225ecea26db8608aff004aa5564ed",
        "publicationTypes": ["JournalArticle"]}, {"paperId": "c9d7afd65b2127e6f0651bc7e13eeec1897ac8dd",
        "publicationTypes": ["JournalArticle"]}, {"paperId": "c40a670d24fa44068d22d356eb496e5656ddad51",
        "publicationTypes": ["JournalArticle"]}, {"paperId": "d126f4a1385f8dd2fbfdb0bcc74a4485f30c4234",
        "publicationTypes": ["JournalArticle"]}, {"paperId": "8f284d99365c51640d38c1e9cbdc0aaf49be291e",
        "publicationTypes": ["JournalArticle"]}, {"paperId": "51e2b3d61d5af53ef9d8f3e5ae98d20bf9d4b084",
        "publicationTypes": ["Book", "JournalArticle"]}, {"paperId": "18a768c84f6065f9948809798c9142d858dcad33",
        "publicationTypes": ["JournalArticle"]}, {"paperId": "8ecbcec2351885579bdf9da486c19783448be270",
        "publicationTypes": ["JournalArticle"]}, {"paperId": "92aa5f727b6897485c0349d8b614d11def74b5d1",
        "publicationTypes": ["JournalArticle"]}, {"paperId": "12d5071b7fd59f108f49bd53bdcd2ce838ce58c0",
        "publicationTypes": ["JournalArticle"]}, {"paperId": "887ef8b338eb6f048bac3ecff8d250a363d3bf9b",
        "publicationTypes": ["JournalArticle"]}, {"paperId": "dec9bb653c77016315880caf4cbd4da3fc5bc00e",
        "publicationTypes": ["JournalArticle"]}, {"paperId": "9fe9b38b1397a4476cd1565f5b6bd2f3ebaa1268",
        "publicationTypes": ["JournalArticle"]}, {"paperId": "3b662774599a36d4b281f0ea212d149849fd2ca7",
        "publicationTypes": ["JournalArticle"]}, {"paperId": "df9b2cf56a90dcfcc22ea4bb07878547eb9744ea",
        "publicationTypes": ["JournalArticle", "Conference"]}, {"paperId": "7e66779e0ac2a80152c634130e12c18fc1516a47",
        "publicationTypes": ["JournalArticle"]}, {"paperId": "95ca0cde71f0258ca99e920f711084a9a3a5fe4b",
        "publicationTypes": ["JournalArticle", "Conference"]}, {"paperId": "906ac7584faf8ead6004be4cc5122320c87df59c",
        "publicationTypes": ["JournalArticle"]}, {"paperId": "8fb5cf374acbe9fed9939ff2c0aec334b5d26187",
        "publicationTypes": ["JournalArticle", "Conference"]}, {"paperId": "b688e72337d6ad2fbee7670b1a2d1ce6d9faafb0",
        "publicationTypes": ["JournalArticle"]}, {"paperId": "32050f9ae9dfc4a8354bd42aaba5d99144c7041a",
        "publicationTypes": ["JournalArticle", "Review"]}, {"paperId": "ececf989a13264a455ec2898ed361b1c435b5f0c",
        "publicationTypes": ["Review", "JournalArticle"]}, {"paperId": "902fb60fa3493171b2aa9d485291a54185763a79",
        "publicationTypes": ["JournalArticle"]}, {"paperId": "660b38b1f340ea0d317294289ef14afbc98acda1",
        "publicationTypes": ["Review", "JournalArticle"]}, {"paperId": "4d176782a6ef007a568e1d7860d3a8f223fc874e",
        "publicationTypes": ["JournalArticle"]}, {"paperId": "1470b244477529e1627b48c117e78308ede474ab",
        "publicationTypes": ["JournalArticle"]}, {"paperId": "751e5ff25e8186a8fd26ee05c4e29a286f650f1b",
        "publicationTypes": ["Book", "JournalArticle", "Conference"]}, {"paperId":
        "0eb03b905cb2e47e3278a2a5aa5512a4b9520e93", "publicationTypes": ["Book", "JournalArticle",
        "Conference"]}, {"paperId": "2b352a475a16b3e12b1af1cf9231ba824db9f937", "publicationTypes":
        ["JournalArticle"]}, {"paperId": "fdadb889d47debf18fe82031af4062b2ccf9de86",
        "publicationTypes": ["JournalArticle", "Study"]}, {"paperId": "0c4930885dd3318d39f39278686446752bc305b5",
        "publicationTypes": ["JournalArticle", "Review"]}, {"paperId": "dd547a64a179f0f3defd376455f258500d34d4b8",
        "publicationTypes": ["JournalArticle"]}, {"paperId": "36fe20dd69b2160b3030fab2c103f02ee2816756",
        "publicationTypes": ["JournalArticle"]}, {"paperId": "b89c8a4a7c89b7933844154655029d8271e8e3a4",
        "publicationTypes": ["JournalArticle", "Review"]}, {"paperId": "b9e537ee71488bb30de3337b7f55e4c6a44aeb8d",
        "publicationTypes": ["JournalArticle"]}, {"paperId": "defa9bf463917f54b0348b35425691d52785891f",
        "publicationTypes": ["JournalArticle"]}, {"paperId": "c835846504d88e8567a121102ae2fe6e89d2e69e",
        "publicationTypes": ["JournalArticle"]}, {"paperId": "2e1d407355a94ddcf2920d677bb83c0d3aeaa21b",
        "publicationTypes": ["JournalArticle"]}, {"paperId": "1c762367c8352f85ec5bf00aa1995430c6add293",
        "publicationTypes": ["JournalArticle", "Conference"]}, {"paperId": "1d973000573811cc6403c2ee274b9b594523be7e",
        "publicationTypes": ["JournalArticle"]}, {"paperId": "0c35496bc1593434d17cc778db1dcc4ff83af6d5",
        "publicationTypes": ["JournalArticle"]}, {"paperId": "3c999256446d684085714db9ea543aedd26c2d4e",
        "publicationTypes": ["JournalArticle"]}, {"paperId": "a12d167d42e7960f3fd7ecbf9600aa036cc73def",
        "publicationTypes": ["JournalArticle"]}]}

        '
    headers:
      Access-Control-Allow-Origin:
      - '*'
      Connection:
      - keep-alive
      Content-Length:
      - '10065'
      Content-Type:
      - application/json
      Date:
      - Sun, 08 Dec 2024 02:18:11 GMT
      Via:
      - 1.1 b57cb95c712a6029fa533d1474f7a2d6.cloudfront.net (CloudFront)
      X-Amz-Cf-Id:
      - vO3vytaU_fhZx0syX08_rRIHhy8xsoBYEMqBU0cjvp9_W0FqaArjMg==
      X-Amz-Cf-Pop:
      - GRU3-P4
      X-Cache:
      - Miss from cloudfront
      x-amz-apigw-id:
      - Cc07lHezvHcES_A=
      x-amzn-Remapped-Connection:
      - keep-alive
      x-amzn-Remapped-Content-Length:
      - '10065'
      x-amzn-Remapped-Date:
      - Sun, 08 Dec 2024 02:18:11 GMT
      x-amzn-Remapped-Server:
      - gunicorn
      x-amzn-RequestId:
      - 10b5d44d-67d6-4be8-b7e0-c69ebb69f59f
    status:
      code: 200
      message: OK
- request:
    body: ''
    headers:
      accept:
      - '*/*'
      accept-encoding:
      - gzip, deflate
      connection:
      - keep-alive
      host:
      - api.semanticscholar.org
      user-agent:
      - python-httpx/0.28.1
    method: GET
    uri: https://api.semanticscholar.org/graph/v1/paper/search?query=turing&publicationTypes=Book%2CConference&fields=publicationTypes&offset=0&limit=100
  response:
    body:
      string: '{"total": 2309, "offset": 0, "next": 100, "data": [{"paperId": "682918c9c1705907ca1fe3f1207561f403f6ea0e",
        "publicationTypes": ["JournalArticle", "Conference"]}, {"paperId": "e55d12cb0e92aa5f4f8ca5dc24d57bd0dcc861ae",
        "publicationTypes": ["JournalArticle", "Conference"]}, {"paperId": "1852cb7abf74cde720f15f57d70e2b261b46fec2",
        "publicationTypes": ["JournalArticle", "Conference"]}, {"paperId": "0f550976f8c1056e459dda126c80383d2012c366",
        "publicationTypes": ["JournalArticle", "Conference"]}, {"paperId": "fc970ba489a2ae75965074583a105ca0ebc7785f",
        "publicationTypes": ["Book", "JournalArticle"]}, {"paperId": "7845bfb55f5ce573b87d77bb76d4d38829b37620",
        "publicationTypes": ["JournalArticle", "Conference"]}, {"paperId": "48099389f41d61a653b939245cc898b238ddee8b",
        "publicationTypes": ["JournalArticle", "Conference"]}, {"paperId": "b4153aafc4bc46e3c59b0c5e600462c3a25e11e3",
        "publicationTypes": ["JournalArticle", "Conference"]}, {"paperId": "d95db65444615528fb56395a4bb01048570cc1cf",
        "publicationTypes": ["JournalArticle", "Conference"]}, {"paperId": "f87390387f8aeba3590dd0a081c732b252c01e43",
        "publicationTypes": ["JournalArticle", "Book"]}, {"paperId": "bfdfd83ddcfa5763ef44895047c0e3ee90e28d85",
        "publicationTypes": ["JournalArticle", "Book"]}, {"paperId": "339c6e6d46836c173fb6a23b493c724896d4cc70",
        "publicationTypes": ["JournalArticle", "Conference"]}, {"paperId": "886793e14c0406aab6e2a5355fbc1358f1c00347",
        "publicationTypes": ["Book", "JournalArticle", "Conference"]}, {"paperId":
        "438bee2d6ec590fdad30ef22b4cd97d31e1b1c69", "publicationTypes": ["JournalArticle",
        "Conference"]}, {"paperId": "75c2d9dfeece7dad0afcbdf69e0ebf6aa9976d25", "publicationTypes":
        ["Book", "JournalArticle"]}, {"paperId": "1789feabb54dc026721b5a9634d370a771f5dc99",
        "publicationTypes": ["JournalArticle", "Conference"]}, {"paperId": "5b167137e25926177d5745955f18b4e616745fe2",
        "publicationTypes": ["JournalArticle", "Conference", "Review"]}, {"paperId":
        "d82134db308dbf38da04096dbc15f1ca3cfa1436", "publicationTypes": ["JournalArticle",
        "Conference"]}, {"paperId": "5c7710a6c9ecba921b3a6d00b36080334917dbd2", "publicationTypes":
        ["JournalArticle", "Conference"]}, {"paperId": "4f05aba9dea39063c77f3f186aab4547dde2993e",
        "publicationTypes": ["JournalArticle", "Conference"]}, {"paperId": "50e8920284497dd6a261cbd8882040711c0abbd3",
        "publicationTypes": ["JournalArticle", "Conference"]}, {"paperId": "43e434618fbca87648856e67874dfec4b6e8611c",
        "publicationTypes": ["JournalArticle", "Conference"]}, {"paperId": "371a00da88022e1275ef25609e4362034d089a84",
        "publicationTypes": ["Book"]}, {"paperId": "5ad36475e45e3f17be1d5cd5a77154cfba2a6994",
        "publicationTypes": ["JournalArticle", "Book"]}, {"paperId": "a79f06d421dfc60ad3d6679c0891f7c41a7d542b",
        "publicationTypes": ["Book", "JournalArticle", "Conference"]}, {"paperId":
        "66c26f9019f8af63fbb610b46f940d6cd99c8272", "publicationTypes": ["JournalArticle",
        "Book"]}, {"paperId": "fc050d32737a516aad7841f769ac00eccc67e5b9", "publicationTypes":
        ["JournalArticle", "Conference"]}, {"paperId": "0ca799fc113dc585d3e8dc252aec9ad1ec90f921",
        "publicationTypes": ["JournalArticle", "Book"]}, {"paperId": "0b34846e343b7b7c784ebd62e3590cc5d60847a3",
        "publicationTypes": ["JournalArticle", "Conference", "Review"]}, {"paperId":
        "c058af5fcc4935ea78bd557c7fa7876785cc8004", "publicationTypes": ["JournalArticle",
        "Conference"]}, {"paperId": "a41dc2eea69029009b593131f868623e5268bb74", "publicationTypes":
        ["JournalArticle", "Conference"]}, {"paperId": "68792f23fcd9666c6edca87b9eb9a2d43fd47928",
        "publicationTypes": ["JournalArticle", "Conference"]}, {"paperId": "1606575fc6f337bde02291a4bf928eb16f58d0e6",
        "publicationTypes": ["JournalArticle", "Conference"]}, {"paperId": "8a30fbbf541a884ca875abb3d1c10858d07cae0b",
        "publicationTypes": ["JournalArticle", "Book", "Conference"]}, {"paperId":
        "51e2b3d61d5af53ef9d8f3e5ae98d20bf9d4b084", "publicationTypes": ["Book", "JournalArticle"]},
        {"paperId": "8b8b07d933a68070b61454b38236dab6b9aac298", "publicationTypes":
        ["Book", "JournalArticle", "Conference"]}, {"paperId": "d0fa798e0d909c6dac5b8d0c358c8d5baea89b4b",
        "publicationTypes": ["JournalArticle", "Conference"]}, {"paperId": "ecc560b2299b0167b1b843a416094b70151d187f",
        "publicationTypes": ["Book", "JournalArticle"]}, {"paperId": "a048a789cc18ba08151cb23bb82b5d78588b588f",
        "publicationTypes": ["JournalArticle", "Conference"]}, {"paperId": "26e1d9cab689cfe2bf1f9122cf23788ab6184a3d",
        "publicationTypes": ["JournalArticle", "Conference"]}, {"paperId": "50fc51056e39c228abea16a39fd47bcf2e53a912",
        "publicationTypes": ["JournalArticle", "Book", "Conference"]}, {"paperId":
        "df9b2cf56a90dcfcc22ea4bb07878547eb9744ea", "publicationTypes": ["JournalArticle",
        "Conference"]}, {"paperId": "95ca0cde71f0258ca99e920f711084a9a3a5fe4b", "publicationTypes":
        ["JournalArticle", "Conference"]}, {"paperId": "8fb5cf374acbe9fed9939ff2c0aec334b5d26187",
        "publicationTypes": ["JournalArticle", "Conference"]}, {"paperId": "751e5ff25e8186a8fd26ee05c4e29a286f650f1b",
        "publicationTypes": ["Book", "JournalArticle", "Conference"]}, {"paperId":
        "0eb03b905cb2e47e3278a2a5aa5512a4b9520e93", "publicationTypes": ["Book", "JournalArticle",
        "Conference"]}, {"paperId": "5b1b4490d9ae307659b2a16cef5d4cb5225b4599", "publicationTypes":
        ["JournalArticle", "Conference"]}, {"paperId": "52c14dff03014b7c458f628cd7a3c8edb2497953",
        "publicationTypes": ["Book"]}, {"paperId": "3e15f730e6603955df7b926971bf0ce64025b616",
        "publicationTypes": ["JournalArticle", "Conference"]}, {"paperId": "1c762367c8352f85ec5bf00aa1995430c6add293",
        "publicationTypes": ["JournalArticle", "Conference"]}, {"paperId": "789b0fc12dd7631ffa183a51d2e29ce93d33fc02",
        "publicationTypes": ["Book", "JournalArticle"]}, {"paperId": "e272fbec3a475ab76ff5948c00c56d29098e9769",
        "publicationTypes": ["JournalArticle", "Conference"]}, {"paperId": "e8fa706e26a9b6312240cad121200bb9fe1d8288",
        "publicationTypes": ["Conference"]}, {"paperId": "34eaa3bcec88ab8e7f21e0278f9d026d49710efe",
        "publicationTypes": ["Book", "JournalArticle", "Conference"]}, {"paperId":
        "2ebd534f98145e514e0351d193926b02f3e55141", "publicationTypes": ["JournalArticle",
        "Conference"]}, {"paperId": "e28b5b611be04c2bc439581699f0fa701afd8499", "publicationTypes":
        ["JournalArticle", "Conference"]}, {"paperId": "b5ecdbe00e998d774d7654057bef6c6b5a679198",
        "publicationTypes": ["JournalArticle", "Conference"]}, {"paperId": "5576f4b5bf054bcdf7bf06c3a88e4a8bc44ab869",
        "publicationTypes": ["JournalArticle", "Conference"]}, {"paperId": "35cd631fffa8a33cb21954a8701eb0f66860a82d",
        "publicationTypes": ["JournalArticle", "Conference"]}, {"paperId": "293328d9078380fbb0f5e2cb64e1a3dec2855e70",
        "publicationTypes": ["JournalArticle", "Conference"]}, {"paperId": "5e5db839d78530aec673eb273e2cc8971f485f2b",
        "publicationTypes": ["JournalArticle", "Conference"]}, {"paperId": "ac7a3d2983b75bd4f44903892a5df295a0f859ff",
        "publicationTypes": ["JournalArticle", "Conference"]}, {"paperId": "21664e9f91c48465cdcb8d82f158bfc2e6ef367c",
        "publicationTypes": ["JournalArticle", "Conference"]}, {"paperId": "f5545ce7661252cf1624e16c3ee42f06a651955d",
        "publicationTypes": ["JournalArticle", "Conference"]}, {"paperId": "eee4bd412df40508db9e2d88d21d0b89cade8dab",
        "publicationTypes": ["Book", "JournalArticle"]}, {"paperId": "55cf5f8c0ab4a191cab1b69161c6d8a2e0aa2ba1",
        "publicationTypes": ["JournalArticle", "Conference"]}, {"paperId": "04ab9a6386a19a096d82acf8fe97604b1a9efa12",
        "publicationTypes": ["Book"]}, {"paperId": "91fd847a5e3e48dbeeb8cb80dabd92a4e73feac9",
        "publicationTypes": ["JournalArticle", "Conference"]}, {"paperId": "62eb74bcda984e622e3ea333ebc7bb62da6cad91",
        "publicationTypes": ["JournalArticle", "Conference"]}, {"paperId": "593f4837983bc750fd98d12aa0f8fb68d0ae6e83",
        "publicationTypes": ["JournalArticle", "Conference"]}, {"paperId": "12819e6226609a8d012934b96430a9c4feea6296",
        "publicationTypes": ["Book", "JournalArticle", "Conference"]}, {"paperId":
        "b3b262de503bd160ffcfd33e180d4e56fb41e53b", "publicationTypes": ["JournalArticle",
        "Conference"]}, {"paperId": "006e0cb1c0f1e0883b73b6bba927680bacc5db51", "publicationTypes":
        ["Book", "JournalArticle"]}, {"paperId": "66ea9389b7ecd7f8070cddc8c6c3ecbf301e3577",
        "publicationTypes": ["JournalArticle", "Conference"]}, {"paperId": "6b0f5f662cc167e705f606a66dc646067dbd5ded",
        "publicationTypes": ["JournalArticle", "Conference"]}, {"paperId": "5c4a64367e8a5fa3719e8206871fdb331b21c450",
        "publicationTypes": ["JournalArticle", "Conference"]}, {"paperId": "65d87282bb9b0ed60bc9f0229d55146adba14e84",
        "publicationTypes": ["JournalArticle", "Conference"]}, {"paperId": "c28ed54e207d6c7cbdac7f667bcd458bb2f17137",
        "publicationTypes": ["Conference"]}, {"paperId": "c001406d9fc02bc9dabef72a05a8803ed7a60d67",
        "publicationTypes": ["JournalArticle", "Conference"]}, {"paperId": "c5fd63756cc5ac85e25af730e8da710efad43ed5",
        "publicationTypes": ["JournalArticle", "Conference"]}, {"paperId": "9ffa700b7907c0a22f4944bfbeab44475476f9af",
        "publicationTypes": ["JournalArticle", "Conference"]}, {"paperId": "87adf92f1a24ed81e9d56b3577426d90d5eb1c6c",
        "publicationTypes": ["JournalArticle", "Conference"]}, {"paperId": "031028b77c9bcdb9ec8cbc8da0baaecee81b6a36",
        "publicationTypes": ["JournalArticle", "Conference"]}, {"paperId": "f89950006fa5c9063a6e40ee23d83fb9728c3b7b",
        "publicationTypes": ["Conference"]}, {"paperId": "38d717d4554d62ad0289bfc15f911a84ecdbdbca",
        "publicationTypes": ["JournalArticle", "Conference"]}, {"paperId": "3f155b09cd5570fe650afdd63fdc93055150c198",
        "publicationTypes": ["JournalArticle", "Conference"]}, {"paperId": "a1124aca43b60b1e5777ae9a9c9a34695f247a30",
        "publicationTypes": ["JournalArticle", "Conference"]}, {"paperId": "6d8ecbc28617b9231f156fc6b1475f92bc9a937b",
        "publicationTypes": ["JournalArticle", "Conference"]}, {"paperId": "571b0750085ae3d939525e62af510ee2cee9d5ea",
        "publicationTypes": ["JournalArticle", "Conference"]}, {"paperId": "0838819fb4c0397e4312eca58def6f2bd60708c8",
        "publicationTypes": ["JournalArticle", "Conference"]}, {"paperId": "8201e6e687f2de477258e9be53ba7b73ee30d7de",
        "publicationTypes": ["JournalArticle", "Conference"]}, {"paperId": "33e372300ce770bbdf30a14bb809416f94443229",
        "publicationTypes": ["Conference"]}, {"paperId": "7864022a0fc64fbe53341e18a0b8b55c648bcb59",
        "publicationTypes": ["JournalArticle", "Conference"]}, {"paperId": "1a8d2e5bb9c646d85308fbd6ce33fce8765e2c26",
        "publicationTypes": ["Book", "JournalArticle", "Conference"]}, {"paperId":
        "4234a17b66e9c79ac48d0032caad4b03d3c61a8f", "publicationTypes": ["JournalArticle",
        "Conference"]}, {"paperId": "9653d5c2c7844347343d073bbedd96e05d52f69b", "publicationTypes":
        ["JournalArticle", "Conference"]}, {"paperId": "f0a55c114e79b8a802fceaad7881a94dbcab790e",
        "publicationTypes": ["Book"]}, {"paperId": "725264948d7b6946259af5b8d966e996b9570f99",
        "publicationTypes": ["JournalArticle", "Book", "Conference"]}, {"paperId":
        "966e8258810b1a41a3f8b1816d6cd8c02b8218b7", "publicationTypes": ["Book", "JournalArticle",
        "Conference"]}, {"paperId": "176f1d608b918eec8dc4b75e7b6e0acaba84a447", "publicationTypes":
        ["JournalArticle", "Conference"]}]}

        '
    headers:
      Access-Control-Allow-Origin:
      - '*'
      Connection:
      - keep-alive
      Content-Length:
      - '11028'
      Content-Type:
      - application/json
      Date:
      - Sun, 08 Dec 2024 02:18:13 GMT
      Via:
      - 1.1 a5313514fbb2ef971d07fa7af0982586.cloudfront.net (CloudFront)
      X-Amz-Cf-Id:
      - dUD7H4rZTpBIGADf1nplaBorS6K4fqsmkSMT-P68PaElYRhtFKiPNA==
      X-Amz-Cf-Pop:
      - GRU3-P4
      X-Cache:
      - Miss from cloudfront
      x-amz-apigw-id:
      - Cc07zED6PHcEodQ=
      x-amzn-Remapped-Connection:
      - keep-alive
      x-amzn-Remapped-Content-Length:
      - '11028'
      x-amzn-Remapped-Date:
      - Sun, 08 Dec 2024 02:18:13 GMT
      x-amzn-Remapped-Server:
      - gunicorn
      x-amzn-RequestId:
      - cb27fa38-b316-4190-9888-e9841750cf2c
    status:
      code: 200
      message: OK
version: 1
