interactions:
- request:
    body: ''
    headers:
      accept:
      - '*/*'
      accept-encoding:
      - gzip, deflate
      connection:
      - keep-alive
      host:
      - api.semanticscholar.org
      user-agent:
      - python-httpx/0.28.1
    method: GET
    uri: https://api.semanticscholar.org/graph/v1/paper/search?query=turing&fields=title&offset=0&limit=100
  response:
    body:
      string: '{"total": 70499, "offset": 0, "next": 100, "data": [{"paperId": "7cbc2a7843411a1768ab762930707af0a3c33a19",
        "title": "Using DeepSpeed and Megatron to Train Megatron-Turing NLG 530B,
        A Large-Scale Generative Language Model"}, {"paperId": "6b0f06617d9f5256a80ed62d9398acb92a55a6bd",
        "title": "Quantum theory, the Church\u2013Turing principle and the universal
        quantum computer"}, {"paperId": "fdbe8d1896b754125c6255f07bd9fecc2ea59127",
        "title": "Putting ChatGPT''s Medical Advice to the (Turing) Test"}, {"paperId":
        "b1247e8442aa10e47f41487a88df84579e98f623", "title": "[PDF] Neural Networks
        And Analog Computation Beyond The Turing Limit"}, {"paperId": "c1126fbffd6b8547a44c58b192b36b08b18299de",
        "title": "Neural Turing Machines"}, {"paperId": "10622a3158756a017a2eea14f87190c236da2915",
        "title": "The Turing Trap: The Promise & Peril of Human-Like Artificial Intelligence"},
        {"paperId": "292da1c4640c105aa5d7919a1ded9a1225c07d4d", "title": "Large Language
        Models and the Reverse Turing Test"}, {"paperId": "7845bfb55f5ce573b87d77bb76d4d38829b37620",
        "title": "TURINGBENCH: A Benchmark Environment for Turing Test in the Age
        of Neural Text Generation"}, {"paperId": "c4cb90a67f45e7cbacb5286e934b309e89843922",
        "title": "Attention is Turing-Complete"}, {"paperId": "9cd1dfaa3c86c71ae74b4c02ebc59cb56c4a396d",
        "title": "Polyamide membranes with nanoscale Turing structures for water purification"},
        {"paperId": "0e9ac2cfc5a3ecb66eeace720901390f7809ba0a", "title": "Statistically
        Meaningful Approximation: a Case Study on Approximating Turing Machines with
        Transformers"}, {"paperId": "6e297ddd30f2fce82d2146b215dbe22dac22bd2e", "title":
        "Dendrite-Free Zinc-Based Battery with High Areal Capacity via the Region-Induced
        Deposition Effect of Turing Membrane."}, {"paperId": "59d9473f91d386176223fb8be06d9ba5f8fc9744",
        "title": "Cairo - a Turing-complete STARK-friendly CPU architecture"}, {"paperId":
        "d6a59868ed67dc581b3a721824c130490ea74566", "title": "Modern perspectives
        on near-equilibrium analysis of Turing systems"}, {"paperId": "a9e9b6e7603268c924016dc94a79cdb39d85c165",
        "title": "Bespoke Turing Systems"}, {"paperId": "220068be6ef897b2b38db687a922423d6693ed9c",
        "title": "Nobel Turing Challenge: creating the engine for scientific discovery"},
        {"paperId": "12c3f818430ffccd1cac64b6e91a750350917d27", "title": "A theory
        of consciousness from a theoretical computer science perspective: Insights
        from the Conscious Turing Machine"}, {"paperId": "473928f705f909a59fe7eee993223c70b58022f8",
        "title": "Turing pattern design principles and their robustness"}, {"paperId":
        "ca8f792d1abe13bb7233a0fa939dc6d5b0d2805d", "title": "Turing: A Language for
        Flexible Probabilistic Inference"}, {"paperId": "cf822a122c846330c51ab70fe4c44db1d374c414",
        "title": "The Church-Turing Thesis"}, {"paperId": "65f8fbcef28d6a8421cb456f32f43fe27cce40cc",
        "title": "Nanoscale Turing patterns in a bismuth monolayer"}, {"paperId":
        "3694381e74445a8b9f8cb8d373e39626e47191b5", "title": "On the Turing Completeness
        of Modern Neural Network Architectures"}, {"paperId": "ee2a011810b5442c28b66f97422564de02a4e319",
        "title": "Can GPT-3 Pass a Writer\u2019s Turing Test?"}, {"paperId": "339c6e6d46836c173fb6a23b493c724896d4cc70",
        "title": "Towards an Automatic Turing Test: Learning to Evaluate Dialogue
        Responses"}, {"paperId": "970db33809cdb96315885222ec80edb56f2fc8b7", "title":
        "Stochastic Turing patterns in a synthetic bacterial population"}, {"paperId":
        "01baca4fa7ad5d28b95f6f72fe33de9a34633bc6", "title": "Dissecting the NVidia
        Turing T4 GPU via Microbenchmarking"}, {"paperId": "75493a3ed750269a2056b3e39a877bc8b00bc50d",
        "title": "Constructing Turing complete Euler flows in dimension 3"}, {"paperId":
        "a84f376a8217a10ade875966eb18e1c851cfee66", "title": "An efficient Turing-type
        Ag2Se-CoSe2 multi-interfacial oxygen-evolving electrocatalyst."}, {"paperId":
        "6a5ea3c1f4256e8987db0de47cf1e787032ca400", "title": "Turing instability in
        the reaction-diffusion network."}, {"paperId": "74e281384ed8340956989bc2a93f8387458a09bf",
        "title": "Image-based modeling of kidney branching morphogenesis reveals GDNF-RET
        based Turing-type mechanism and pattern-modulating WNT11 feedback"}, {"paperId":
        "3bb868dc65ddd7d3229f8a07f82b152ac304aba2", "title": "From one pattern into
        another: analysis of Turing patterns in heterogeneous domains via WKBJ"},
        {"paperId": "12c00512e99b88bf01bbd8662324fa3b61a73347", "title": "TURING-HOPF
        BIFURCATION IN THE REACTION-DIFFUSION SYSTEM WITH DELAY AND APPLICATION TO
        A DIFFUSIVE PREDATOR-PREY MODEL"}, {"paperId": "47973a6fb5baa95d494826f8256265a566a2d384",
        "title": "Turing patterns mediated by network topology in homogeneous active
        systems."}, {"paperId": "6cda6bf951da823ab8673e659bdca13b9928ed47", "title":
        "RTX ON \u2013 The NVIDIA TURING GPU"}, {"paperId": "bef4ae975a0068484cfa62d3b006991d68716c04",
        "title": "Where does AlphaGo go: from church-turing thesis to AlphaGo thesis
        and beyond"}, {"paperId": "5045c73f6b9342a10bc565f4a1c0ed325fda53c3", "title":
        "Spatiotemporal patterns induced by Turing and Turing-Hopf bifurcations in
        a predator-prey system"}, {"paperId": "b0e69af8e8f7f2501cb26290e57a8563dba5d178",
        "title": "Simplified and Yet Turing Universal Spiking Neural P Systems with
        Communication on Request"}, {"paperId": "64f47687daaa84ac1fdb1bc2f85c065007163f06",
        "title": "Information Thermodynamics of Turing Patterns."}, {"paperId": "ef2dde81f9c215e0a69dd81ca9222ca178fe42ce",
        "title": "An ancient Turing-like patterning mechanism regulates skin denticle
        development in sharks"}, {"paperId": "97b47dc9bc0da49f83a7ef2e9d2ac461c222dd73",
        "title": "Post-Turing tissue pattern formation: Advent of mechanochemistry"},
        {"paperId": "7633d38345730e3ce80b03b290e41d0d1ff87697", "title": "Turing Instability
        and Turing\u2013Hopf Bifurcation in Diffusive Schnakenberg Systems with Gene
        Expression Time Delay"}, {"paperId": "ad9ed24d729c70f0f1a97106da03c60de9e9dbb7",
        "title": "Magic: The Gathering is Turing Complete"}, {"paperId": "1606575fc6f337bde02291a4bf928eb16f58d0e6",
        "title": "Implementing Neural Turing Machines"}, {"paperId": "fe1077f6b79e14457db77d7477a477f40f87e7e6",
        "title": "Dynamic Neural Turing Machine with Continuous and Discrete Addressing
        Schemes"}, {"paperId": "9def36719b968ff472aecd7abdbed3e88f4e7d8c", "title":
        "\"The Chemical Basis of Morphogenesis\" (1952), by Alan M. Turing"}, {"paperId":
        "079adfb4ec1a617935f4c74763ed57ba0eedecff", "title": "Digit patterning is
        controlled by a Bmp-Sox9-Wnt Turing network modulated by morphogen gradients"},
        {"paperId": "fb7dd3ec9cc225ecea26db8608aff004aa5564ed", "title": "Spatiotemporal
        Dynamics of the Diffusive Mussel-Algae Model Near Turing-Hopf Bifurcation"},
        {"paperId": "c091bf5bc6e02555b222fe4e15b6108583c14510", "title": "Key Features
        of Turing Systems are Determined Purely by Network Topology"}, {"paperId":
        "b4f8f82d77a8e600faa3eae9071970563748b847", "title": "Common Sense, the Turing
        Test, and the Quest for Real AI"}, {"paperId": "9b4dbfffee7f14c5b4a228565ba31ae9ac66e5d2",
        "title": "Alan Turing"}, {"paperId": "c9d7afd65b2127e6f0651bc7e13eeec1897ac8dd",
        "title": "Reinforcement Learning Neural Turing Machines"}, {"paperId": "c40a670d24fa44068d22d356eb496e5656ddad51",
        "title": "Turing and Turing\u2013Hopf Bifurcations for a Reaction Diffusion
        Equation with Nonlocal Advection"}, {"paperId": "51e2b3d61d5af53ef9d8f3e5ae98d20bf9d4b084",
        "title": "Indistinguishability Obfuscation for Turing Machines with Unbounded
        Memory"}, {"paperId": "6f2c69a1f76a70ef392efa83cd521c3cf58a9f6f", "title":
        "Letter to Turing"}, {"paperId": "5259755f9c100e220ffaa7e08439c5d34be7757a",
        "title": "Reinforcement Learning Neural Turing Machines - Revised"}, {"paperId":
        "92aa5f727b6897485c0349d8b614d11def74b5d1", "title": "Theory of Turing Patterns
        on Time Varying Networks."}, {"paperId": "d3edc100c6577abba414f6c0a16e4c3921e68bff",
        "title": "A visual Turing test for computer vision systems"}, {"paperId":
        "257d834280b58f62e8fcd18980162e3fc8f98138", "title": "Turing Computability"},
        {"paperId": "12d5071b7fd59f108f49bd53bdcd2ce838ce58c0", "title": "An improved
        nonparametric lower bound of species richness via a modified good\u2013turing
        frequency formula"}, {"paperId": "9f12d195c2a336139b98f2301a386be30e2be0c4",
        "title": "Alan Turing: The Enigma"}, {"paperId": "3b662774599a36d4b281f0ea212d149849fd2ca7",
        "title": "The fin-to-limb transition as the re-organization of a Turing pattern"},
        {"paperId": "df9b2cf56a90dcfcc22ea4bb07878547eb9744ea", "title": "Simulated
        Penetration Testing: From \"Dijkstra\" to \"Turing Test++\""}, {"paperId":
        "a80e6b67715d6315cc607a414fd6fe2eb9edc3b2", "title": "Turing\u2013Hopf bifurcation
        analysis of a predator\u2013prey model with herd behavior and cross-diffusion"},
        {"paperId": "95ca0cde71f0258ca99e920f711084a9a3a5fe4b", "title": "Competitive
        Distribution Estimation: Why is Good-Turing Good"}, {"paperId": "8fb5cf374acbe9fed9939ff2c0aec334b5d26187",
        "title": "Functional Encryption for Turing Machines"}, {"paperId": "b688e72337d6ad2fbee7670b1a2d1ce6d9faafb0",
        "title": "Turing-Hopf bifurcation in the reaction-diffusion equations and
        its applications"}, {"paperId": "ececf989a13264a455ec2898ed361b1c435b5f0c",
        "title": "Forging patterns and making waves from biology to geology: a commentary
        on Turing (1952) \u2018The chemical basis of morphogenesis\u2019"}, {"paperId":
        "3d27bbfcf1ebe7390b5250e677e91179a76569e4", "title": "Globally stable microresonator
        Turing pattern formation for coherent high-power THz radiation on-chip"},
        {"paperId": "902fb60fa3493171b2aa9d485291a54185763a79", "title": "Can machines
        think? A report on Turing test experiments at the Royal Society"}, {"paperId":
        "660b38b1f340ea0d317294289ef14afbc98acda1", "title": "Is pigment patterning
        in fish skin determined by the Turing mechanism?"}, {"paperId": "1470b244477529e1627b48c117e78308ede474ab",
        "title": "Turing learning: a metric-free approach to inferring behavior and
        its application to swarms"}, {"paperId": "751e5ff25e8186a8fd26ee05c4e29a286f650f1b",
        "title": "Java generics are turing complete"}, {"paperId": "2b352a475a16b3e12b1af1cf9231ba824db9f937",
        "title": "Turing Patterns in Memristive Cellular Nonlinear Networks"}, {"paperId":
        "fdadb889d47debf18fe82031af4062b2ccf9de86", "title": "Diverse set of Turing
        nanopatterns coat corneae across insect lineages"}, {"paperId": "0c4930885dd3318d39f39278686446752bc305b5",
        "title": "Twitter turing test: Identifying social machines"}, {"paperId":
        "dd547a64a179f0f3defd376455f258500d34d4b8", "title": "Competing Turing and
        Faraday Instabilities in Longitudinally Modulated Passive Resonators."}, {"paperId":
        "36fe20dd69b2160b3030fab2c103f02ee2816756", "title": "Pigment cell movement
        is not required for generation of Turing patterns in zebrafish skin"}, {"paperId":
        "b9e537ee71488bb30de3337b7f55e4c6a44aeb8d", "title": "Testing Turing\u2019s
        theory of morphogenesis in chemical cells"}, {"paperId": "7d4518f7ba6528967244114a5daaed2884b9b86c",
        "title": "Turing machine universality of the game of life"}, {"paperId": "479009661d0b008c33627aa423afbd36f70a7549",
        "title": "Turing (1936), On Computable Numbers, with an Application to the
        Entscheidungsproblem"}, {"paperId": "2e1d407355a94ddcf2920d677bb83c0d3aeaa21b",
        "title": "The Group of Reversible Turing Machines"}, {"paperId": "a12d167d42e7960f3fd7ecbf9600aa036cc73def",
        "title": "Human misidentification in Turing tests"}, {"paperId": "01dde81924fc37171a93e2f4115b7beec8f349d9",
        "title": "Towards a Historical Notion of \u2018Turing\u2014the Father of Computer
        Science\u2019"}, {"paperId": "358e1c04f03c2ede4b913a7430e99e78e66f2597", "title":
        "Beyond Turing: The response of patterned ecosystems to environmental change"},
        {"paperId": "267b68f66413d23b1b7ad24ecfad8d8eb29351b8", "title": "Passing
        the Turing Test Does Not Mean the End of Humanity"}, {"paperId": "3e9a89c69af90f4a7032130e1fc98621a8d7c746",
        "title": "Turing instabilities in prey\u2013predator systems with dormancy
        of predators"}, {"paperId": "7224596e2cbafff3c027021fb19410a63f76487b", "title":
        "Turing-Completeness Totally Free"}, {"paperId": "3d29e1c4f1c2b079cf6b5dd458fa6cee246955f9",
        "title": "Towards a Visual Turing Challenge"}, {"paperId": "9cea15989cc2e0c86c8c8402412e0e9a3f4a55a1",
        "title": "Turing''s legacy: developments from Turing''s ideas in logic"},
        {"paperId": "4368e42c838d031625def660ed724455a393883f", "title": "Delay-induced
        Turing instability in reaction-diffusion equations."}, {"paperId": "368a7958ae2b6b8f30454f4405c0bfa090ec5c22",
        "title": "Photonic information processing beyond Turing: an optoelectronic
        implementation of reservoir computing."}, {"paperId": "3bd7858df71adb919d1d4b137cf1c78134d7f33e",
        "title": "Alan Turing and the development of Artificial Intelligence"}, {"paperId":
        "79c13947d11cc1bb4461dea03a8c084333f255cc", "title": "The Super-Turing Computational
        Power of plastic Recurrent Neural Networks"}, {"paperId": "d4e7fd1769b0a6ab68b8cd48d4c8fc4f08415120",
        "title": "Turing pattern dynamics in an activator-inhibitor system with superdiffusion."},
        {"paperId": "7281183d1b510a75fc32a9713133c242e6fcc718", "title": "Cooperativity
        To Increase Turing Pattern Space for Synthetic Biology"}, {"paperId": "a0f5b45c53e4d4a795e213d66776ee584c9d9cd5",
        "title": "Subcritical Turing bifurcation and the morphogenesis of localized
        patterns."}, {"paperId": "e007587c6904551c28d8590c0bbe871978ed1fc3", "title":
        "Turing Instability and Pattern Formation for the Lengyel\u2013Epstein System
        with Nonlinear Diffusion"}, {"paperId": "1c9aa4e10d86f74baf0cfb9e4641a0d5da79dd95",
        "title": "Alan Turing: The Enigma"}, {"paperId": "4901daf067430f3dca14ab32f348c86915021d16",
        "title": "Spatio-temporal organization in a morphochemical electrodeposition
        model: Hopf and Turing instabilities and their interplay"}, {"paperId": "f4aaf0a780cd02138aade2a51f99989cc2c962fd",
        "title": "Turing patterns in multiplex networks."}]}

        '
    headers:
      Access-Control-Allow-Origin:
      - '*'
      Connection:
      - keep-alive
      Content-Length:
      - '13815'
      Content-Type:
      - application/json
      Date:
      - Sun, 08 Dec 2024 02:10:20 GMT
      Via:
      - 1.1 4a4417691ec8f1082768838f633d178c.cloudfront.net (CloudFront)
      X-Amz-Cf-Id:
      - sBZEYLh6C8gkkBqT1Twtjkc-q9iohUXFI0K7F0sOZsviaEGNmKNPaw==
      X-Amz-Cf-Pop:
      - GRU3-P4
      X-Cache:
      - Miss from cloudfront
      x-amz-apigw-id:
      - Cczx7EmHvHcES_A=
      x-amzn-Remapped-Connection:
      - keep-alive
      x-amzn-Remapped-Content-Length:
      - '13815'
      x-amzn-Remapped-Date:
      - Sun, 08 Dec 2024 02:10:20 GMT
      x-amzn-Remapped-Server:
      - gunicorn
      x-amzn-RequestId:
      - 7070dd45-ee7f-48a8-8481-befc33a52cd5
    status:
      code: 200
      message: OK
version: 1
