interactions:
- request:
    body: ''
    headers:
      accept:
      - '*/*'
      accept-encoding:
      - gzip, deflate
      connection:
      - keep-alive
      host:
      - api.semanticscholar.org
      user-agent:
      - python-httpx/0.28.1
    method: GET
    uri: https://api.semanticscholar.org/graph/v1/paper/search?query=turing&openAccessPdf=&fields=openAccessPdf&offset=0&limit=100
  response:
    body:
      string: '{"total": 11054, "offset": 0, "next": 100, "data": [{"paperId": "f1328e67a62218c365a5945d58123634db1895be",
        "openAccessPdf": {"url": "https://mededu.jmir.org/2023/1/e46939/PDF", "status":
        "GOLD"}}, {"paperId": "6b0f06617d9f5256a80ed62d9398acb92a55a6bd", "openAccessPdf":
        {"url": "http://www.cs.berkeley.edu/~christos/classics/Deutsch_quantum_theory.pdf",
        "status": "GREEN"}}, {"paperId": "fdbe8d1896b754125c6255f07bd9fecc2ea59127",
        "openAccessPdf": {"url": "http://arxiv.org/pdf/2301.10035", "status": "CLOSED"}},
        {"paperId": "79bae31ed966a7a97dbea7292e17fa6274122100", "openAccessPdf": {"url":
        "http://arxiv.org/pdf/2305.20010", "status": "CLOSED"}}, {"paperId": "bba46cd6993a9f86d76568afd1aea0aa2132d260",
        "openAccessPdf": {"url": "https://www.nature.com/articles/s41467-023-40972-w.pdf",
        "status": "GOLD"}}, {"paperId": "10622a3158756a017a2eea14f87190c236da2915",
        "openAccessPdf": {"url": "https://direct.mit.edu/daed/article-pdf/151/2/272/2060604/daed_a_01915.pdf",
        "status": "HYBRID"}}, {"paperId": "36f0cc5b4bc1e8d8ee652d5b95a8a5477b280748",
        "openAccessPdf": {"url": "https://www.science.org/doi/pdf/10.1126/sciadv.ade4381?download=true",
        "status": "GOLD"}}, {"paperId": "b60ab200d24faf6dd20cafe234ccb43e23cf39d2",
        "openAccessPdf": {"url": "https://www.science.org/doi/pdf/10.1126/sciadv.adj2457?download=true",
        "status": "GOLD"}}, {"paperId": "292da1c4640c105aa5d7919a1ded9a1225c07d4d",
        "openAccessPdf": {"url": "https://direct.mit.edu/neco/article-pdf/35/3/309/2071839/neco_a_01563.pdf",
        "status": "BRONZE"}}, {"paperId": "331fa9e381cd219a3961cd5ef7dda401e8751606",
        "openAccessPdf": {"url": "https://www.pnas.org/doi/pdf/10.1073/pnas.2313925121",
        "status": "HYBRID"}}, {"paperId": "7845bfb55f5ce573b87d77bb76d4d38829b37620",
        "openAccessPdf": {"url": "https://aclanthology.org/2021.findings-emnlp.172.pdf",
        "status": "HYBRID"}}, {"paperId": "9cd1dfaa3c86c71ae74b4c02ebc59cb56c4a396d",
        "openAccessPdf": {"url": "https://science.sciencemag.org/content/sci/360/6388/518.full.pdf",
        "status": "BRONZE"}}, {"paperId": "bf3551dbd18e8e2778b3f8eea9e06f0ce085d4bf",
        "openAccessPdf": {"url": "https://arxiv.org/pdf/2207.03985", "status": "GREEN"}},
        {"paperId": "30676f14b9ae9ff5e07fa2baefefe3b38fc77afd", "openAccessPdf": {"url":
        "https://www.frontiersin.org/articles/10.3389/fonc.2022.814667/pdf", "status":
        "GOLD"}}, {"paperId": "01fe5977a3ec7d231e72cecef06501590f9f6c1b", "openAccessPdf":
        {"url": "https://www.nature.com/articles/s41467-022-30574-3.pdf", "status":
        "GOLD"}}, {"paperId": "10ab9e16394ff1a4b7046d16bb03d36f5bccd110", "openAccessPdf":
        {"url": "https://link.springer.com/content/pdf/10.1007/s11023-022-09616-8.pdf",
        "status": "HYBRID"}}, {"paperId": "d6b99d3f073e7f27fbc72f114015a7fff8585717",
        "openAccessPdf": {"url": "https://www.mmnp-journal.org/articles/mmnp/pdf/forth/mmnp220130.pdf",
        "status": "HYBRID"}}, {"paperId": "7bb05168ae543dd1b3a0dad32de77ec22aa2b7c0",
        "openAccessPdf": {"url": "http://link.aps.org/pdf/10.1103/PhysRevX.13.021038",
        "status": "GOLD"}}, {"paperId": "905c886090f1943da1e44ab2ece7e7659cf5a35c",
        "openAccessPdf": {"url": "http://arxiv.org/pdf/2212.06721", "status": "CLOSED"}},
        {"paperId": "a9e9b6e7603268c924016dc94a79cdb39d85c165", "openAccessPdf": {"url":
        "https://link.springer.com/content/pdf/10.1007/s11538-021-00870-y.pdf", "status":
        "HYBRID"}}, {"paperId": "220068be6ef897b2b38db687a922423d6693ed9c", "openAccessPdf":
        {"url": "https://www.nature.com/articles/s41540-021-00189-3.pdf", "status":
        "GOLD"}}, {"paperId": "d1a7110a0d7c15df6e609bf6e42cc9e83572e219", "openAccessPdf":
        {"url": "https://strathprints.strath.ac.uk/76774/1/Pasquazi_etal_SPIE_2021_Laser_cavity_solitons_and_Turing_patterns_in_microresonator.pdf",
        "status": "GREEN"}}, {"paperId": "a52ecce7faa244be6d9b00fff87d19285d110a4d",
        "openAccessPdf": {"url": "https://onlinelibrary.wiley.com/doi/pdfdirect/10.1002/aisy.202100211",
        "status": "GOLD"}}, {"paperId": "95bea94b9e91c88430bc8e09cfd623e892ccff30",
        "openAccessPdf": {"url": "http://www.ijiet.org/vol11/1497-EL014.pdf", "status":
        "GOLD"}}, {"paperId": "44aef39e249254e4365be3a01cdadf5200f223b0", "openAccessPdf":
        {"url": "https://www.researchsquare.com/article/rs-132152/v1.pdf?c=1637613926000",
        "status": "GREEN"}}, {"paperId": "65f8fbcef28d6a8421cb456f32f43fe27cce40cc",
        "openAccessPdf": {"url": "https://www.researchsquare.com/article/rs-132152/v1.pdf?c=1637613926000",
        "status": "GREEN"}}, {"paperId": "469247f90a2c3dc67985862bce67f5d5dafde778",
        "openAccessPdf": {"url": "https://eprints.soton.ac.uk/447802/1/Turing_Award_elites_revisited_patterns_of_productivity_collaboration_authorship_and_impact.pdf",
        "status": "GREEN"}}, {"paperId": "bfdfd83ddcfa5763ef44895047c0e3ee90e28d85",
        "openAccessPdf": {"url": "https://arxiv.org/pdf/2104.13983", "status": "GREEN"}},
        {"paperId": "3253d957f31f84aa5cc78897610c384702e883c5", "openAccessPdf": {"url":
        "https://arxiv.org/pdf/2104.04356", "status": "GREEN"}}, {"paperId": "ee2a011810b5442c28b66f97422564de02a4e319",
        "openAccessPdf": {"url": "https://culturalanalytics.org/article/17212.pdf",
        "status": "GOLD"}}, {"paperId": "339c6e6d46836c173fb6a23b493c724896d4cc70",
        "openAccessPdf": {"url": "https://www.aclweb.org/anthology/P17-1103.pdf",
        "status": "HYBRID"}}, {"paperId": "ee749e41462544ed973310de95e3c94d4d7fc1d6",
        "openAccessPdf": {"url": "http://link.aps.org/pdf/10.1103/PhysRevResearch.2.023395",
        "status": "GOLD"}}, {"paperId": "de5746c3961698536f2497e5fa89fa73d87aefac",
        "openAccessPdf": {"url": "https://www.nature.com/articles/s41598-022-19010-0.pdf",
        "status": "GOLD"}}, {"paperId": "970db33809cdb96315885222ec80edb56f2fc8b7",
        "openAccessPdf": {"url": "https://www.pnas.org/content/pnas/115/26/6572.full.pdf",
        "status": "BRONZE"}}, {"paperId": "75493a3ed750269a2056b3e39a877bc8b00bc50d",
        "openAccessPdf": {"url": "https://www.pnas.org/content/pnas/118/19/e2026818118.full.pdf",
        "status": "BRONZE"}}, {"paperId": "a84f376a8217a10ade875966eb18e1c851cfee66",
        "openAccessPdf": {"url": "https://www.researchsquare.com/article/rs-39890/latest.pdf",
        "status": "GREEN"}}, {"paperId": "71c076b4c606174a6e83d7d64d2064827d6b6d11",
        "openAccessPdf": {"url": "https://arxiv.org/pdf/1710.09762", "status": "GREEN"}},
        {"paperId": "7e9b75b60914c36cf94bc98078aee8bc01a193ff", "openAccessPdf": {"url":
        "https://www.jmir.org/2019/10/e16222/PDF", "status": "GOLD"}}, {"paperId":
        "2b6a58d265e33705fd28c42b1941c5e4e5ac2621", "openAccessPdf": {"url": "https://arxiv.org/pdf/2006.16578",
        "status": "GREEN"}}, {"paperId": "e39fdce647c992f469d391c72afd20fcede96b20",
        "openAccessPdf": {"url": "https://link.springer.com/content/pdf/10.1007/s00158-020-02580-w.pdf",
        "status": "HYBRID"}}, {"paperId": "72ffeb1542cdf416eb434b144d99efb56e94980f",
        "openAccessPdf": {"url": "https://royalsocietypublishing.org/doi/pdf/10.1098/rspa.2020.0003",
        "status": "BRONZE"}}, {"paperId": "559ba9bf3b8475da1776d094f0e5dfb274c89049",
        "openAccessPdf": {"url": "http://link.aps.org/pdf/10.1103/PhysRevLett.126.238101",
        "status": "GREEN"}}, {"paperId": "74e281384ed8340956989bc2a93f8387458a09bf",
        "openAccessPdf": {"url": "https://www.nature.com/articles/s41467-018-08212-8.pdf",
        "status": "GOLD"}}, {"paperId": "3bb868dc65ddd7d3229f8a07f82b152ac304aba2",
        "openAccessPdf": {"url": "https://royalsocietypublishing.org/doi/pdf/10.1098/rsif.2019.0621",
        "status": "HYBRID"}}, {"paperId": "4d879cff18fb5fd1e8ad569b9af0cff2bb728c23",
        "openAccessPdf": {"url": "https://link.springer.com/content/pdf/10.1007/s11538-020-00809-9.pdf",
        "status": "HYBRID"}}, {"paperId": "c24293e5bfbd04b9b6e7616f49ef20959c367267",
        "openAccessPdf": {"url": "https://arxiv.org/pdf/2111.02634", "status": "GREEN"}},
        {"paperId": "47973a6fb5baa95d494826f8256265a566a2d384", "openAccessPdf": {"url":
        "https://arxiv.org/pdf/1903.03845", "status": "GREEN"}}, {"paperId": "cc7df30dfb767f67b42930ef57407ebabb052723",
        "openAccessPdf": {"url": "https://www.cell.com/article/S2405471219302649/pdf",
        "status": "BRONZE"}}, {"paperId": "67ef66b89af708e0363f3bb3b20af6109269605e",
        "openAccessPdf": {"url": "https://journals.plos.org/plosone/article/file?id=10.1371/journal.pone.0241596&type=printable",
        "status": "GOLD"}}, {"paperId": "92ac61b13eab6a710ac8253ad549df38ff7802c8",
        "openAccessPdf": {"url": "https://www.aclweb.org/anthology/S17-2083.pdf",
        "status": "HYBRID"}}, {"paperId": "5942e2b327d5dec23c937b29726b63668541c217",
        "openAccessPdf": {"url": "https://royalsocietypublishing.org/doi/pdf/10.1098/rspa.2020.0356",
        "status": "BRONZE"}}, {"paperId": "e4940d20c6df003e6c63c0d35526ee6130ed7abe",
        "openAccessPdf": {"url": "https://arxiv.org/pdf/2004.01230", "status": "GREEN"}},
        {"paperId": "73f6d735eff1bad2e38d6fe4f592b890608ed1e6", "openAccessPdf": {"url":
        "https://arts.units.it/bitstream/11368/3029068/3/J97%2b2020%2bPhysicaA_%2bdOnofrio_-Post_print.pdf",
        "status": "GREEN"}}, {"paperId": "2e3efee0587cbf79b9686df886b8e73395e49dcb",
        "openAccessPdf": {"url": "https://link.springer.com/content/pdf/10.1007/s42979-020-00341-6.pdf",
        "status": "BRONZE"}}, {"paperId": "b0e69af8e8f7f2501cb26290e57a8563dba5d178",
        "openAccessPdf": {"url": "https://dora.dmu.ac.uk/bitstreams/965a873d-f816-4f84-9a85-d508558aa139/download",
        "status": "GREEN"}}, {"paperId": "64f47687daaa84ac1fdb1bc2f85c065007163f06",
        "openAccessPdf": {"url": "https://arxiv.org/pdf/1803.05378", "status": "GREEN"}},
        {"paperId": "5d1d3b3fe834f66ffdb8c8855745038f52a58e4b", "openAccessPdf": {"url":
        "https://cris.maastrichtuniversity.nl/files/74764312/Dekker_2018_Comparative_evaluation_of_autocontouring_in_clinical_practice.pdf",
        "status": "GREEN"}}, {"paperId": "ef2dde81f9c215e0a69dd81ca9222ca178fe42ce",
        "openAccessPdf": {"url": "https://advances.sciencemag.org/content/advances/4/11/eaau5484.full.pdf",
        "status": "GOLD"}}, {"paperId": "0752ea137a656b5ee5b38972965fc84a2403fca8",
        "openAccessPdf": {"url": "https://www.biorxiv.org/content/biorxiv/early/2021/04/16/2020.10.18.344135.full.pdf",
        "status": "GREEN"}}, {"paperId": "97b47dc9bc0da49f83a7ef2e9d2ac461c222dd73",
        "openAccessPdf": {"url": "https://journals.plos.org/ploscompbiol/article/file?id=10.1371/journal.pcbi.1006259&type=printable",
        "status": "GOLD"}}, {"paperId": "0b34846e343b7b7c784ebd62e3590cc5d60847a3",
        "openAccessPdf": {"url": "https://www.ijcai.org/proceedings/2019/0714.pdf",
        "status": "BRONZE"}}, {"paperId": "fc4e79529970e6aef061d74afe7b43a8daa4ab61",
        "openAccessPdf": {"url": "http://link.aps.org/pdf/10.1103/PhysRevResearch.2.033312",
        "status": "GOLD"}}, {"paperId": "4e6a75e9f3fc9d13106c2363cc814b5f315bb9fb",
        "openAccessPdf": {"url": "http://t2r2.star.titech.ac.jp/rrws/file/CTT100841730/ATD100000413/",
        "status": "GREEN"}}, {"paperId": "1f297e4c32517e88877ddee9728dbbcc4ff6d06a",
        "openAccessPdf": {"url": "https://ora.ox.ac.uk/objects/uuid:5183a493-6f4c-4475-b801-10d86c8a55f7/files/m0aa917f990a15ea36e2932a04b9ace38",
        "status": "GREEN"}}, {"paperId": "16b5c06a1cb8abb8e196610e0737d8534e013a79",
        "openAccessPdf": {"url": "https://arxiv.org/pdf/1903.08506", "status": "GREEN"}},
        {"paperId": "ce980d98a56f310a1d40fdb382dc770f57642ca5", "openAccessPdf": {"url":
        "https://journals.plos.org/plosbiology/article/file?id=10.1371/journal.pbio.3000195&type=printable",
        "status": "GOLD"}}, {"paperId": "7d31b736a8a3ced7a74afac76445a689b7965722",
        "openAccessPdf": {"url": "https://researchonline.federation.edu.au/vital/access/services/Download/vital:14281/SOURCE1",
        "status": "GREEN"}}, {"paperId": "c091bf5bc6e02555b222fe4e15b6108583c14510",
        "openAccessPdf": {"url": "http://link.aps.org/pdf/10.1103/PhysRevX.8.021071",
        "status": "GOLD"}}, {"paperId": "ab9224a8d7d710e1ecaa3af7f93821f4b2e89338",
        "openAccessPdf": {"url": "https://www.nature.com/articles/s41598-018-20678-6.pdf",
        "status": "GOLD"}}, {"paperId": "b19b3606761f2999ffdb0e618ed5b1e802eb5cc7",
        "openAccessPdf": {"url": "https://arxiv.org/pdf/1909.00056", "status": "GREEN"}},
        {"paperId": "894a3a7616e20f296c9d384b58034ddd76052ebe", "openAccessPdf": {"url":
        "https://royalsocietypublishing.org/doi/pdf/10.1098/rsta.2017.0188", "status":
        "BRONZE"}}, {"paperId": "1a493fb30f0175a4e0010397252907d189a80639", "openAccessPdf":
        {"url": "https://journals.plos.org/plosbiology/article/file?id=10.1371/journal.pbio.2004877&type=printable",
        "status": "GOLD"}}, {"paperId": "d126f4a1385f8dd2fbfdb0bcc74a4485f30c4234",
        "openAccessPdf": {"url": "https://royalsocietypublishing.org/doi/pdf/10.1098/rspa.2018.0767",
        "status": "BRONZE"}}, {"paperId": "c05ddb5a55dfb05b925f3b178093871d1922b5d5",
        "openAccessPdf": {"url": "https://link.springer.com/content/pdf/10.1007/s11538-018-0535-y.pdf",
        "status": "HYBRID"}}, {"paperId": "6f2c69a1f76a70ef392efa83cd521c3cf58a9f6f",
        "openAccessPdf": {"url": "https://hal.archives-ouvertes.fr/hal-02903799/file/_2018_Letter-to-Turing.pdf",
        "status": "GREEN"}}, {"paperId": "18a768c84f6065f9948809798c9142d858dcad33",
        "openAccessPdf": {"url": "https://dl.acm.org/doi/pdf/10.1145/3198448", "status":
        "BRONZE"}}, {"paperId": "2b9e8398f4bd6f1d81e26d82d591debb16f6be93", "openAccessPdf":
        {"url": "https://royalsocietypublishing.org/doi/pdf/10.1098/rsif.2017.0805",
        "status": "HYBRID"}}, {"paperId": "8b8b07d933a68070b61454b38236dab6b9aac298",
        "openAccessPdf": {"url": "http://pure-oai.bham.ac.uk/ws/files/71146432/Computability_Beyond.pdf",
        "status": "GREEN"}}, {"paperId": "92aa5f727b6897485c0349d8b614d11def74b5d1",
        "openAccessPdf": {"url": "https://arxiv.org/pdf/1705.08025", "status": "GREEN"}},
        {"paperId": "887ef8b338eb6f048bac3ecff8d250a363d3bf9b", "openAccessPdf": {"url":
        "https://eprints.kingston.ac.uk/id/eprint/37455/1/Argyriou-V-37455-AAM.pdf",
        "status": "GREEN"}}, {"paperId": "cb356548bc07d833b14a7a89b85da4f65a71b039",
        "openAccessPdf": {"url": "https://hal.archives-ouvertes.fr/hal-01626324/file/ABD26102017.pdf",
        "status": "GREEN"}}, {"paperId": "bbec6b1b1adcc8d4d21ddef0356c080cec081692",
        "openAccessPdf": {"url": "https://link.springer.com/content/pdf/10.1007%2Fs11538-018-0518-z.pdf",
        "status": "HYBRID"}}, {"paperId": "9fe9b38b1397a4476cd1565f5b6bd2f3ebaa1268",
        "openAccessPdf": {"url": "https://royalsocietypublishing.org/doi/pdf/10.1098/rspa.2016.0744",
        "status": "BRONZE"}}, {"paperId": "3b662774599a36d4b281f0ea212d149849fd2ca7",
        "openAccessPdf": {"url": "https://www.nature.com/articles/ncomms11582.pdf",
        "status": "GOLD"}}, {"paperId": "df9b2cf56a90dcfcc22ea4bb07878547eb9744ea",
        "openAccessPdf": {"url": "https://ojs.aaai.org/index.php/ICAPS/article/download/13684/13533",
        "status": "BRONZE"}}, {"paperId": "7de39928d9857baf083a1d56c58ef133c50a4195",
        "openAccessPdf": {"url": "https://www.aimsciences.org/article/exportPdf?id=4e77b500-2840-48a6-b74c-d8330328db0d",
        "status": "GOLD"}}, {"paperId": "4a4cfac80d6a76ab685a057eb996443fe9355a73",
        "openAccessPdf": {"url": "https://scholarworks.uvm.edu/cgi/viewcontent.cgi?article=1063&context=casfac",
        "status": "GREEN"}}, {"paperId": "8aa436c6ef179dd2bcffbaae705825237812ba84",
        "openAccessPdf": {"url": "https://journals.plos.org/plosone/article/file?id=10.1371/journal.pone.0174946&type=printable",
        "status": "GOLD"}}, {"paperId": "ececf989a13264a455ec2898ed361b1c435b5f0c",
        "openAccessPdf": {"url": "https://royalsocietypublishing.org/doi/pdf/10.1098/rstb.2014.0218",
        "status": "HYBRID"}}, {"paperId": "9847441b8ed5c180dfb4e5d2956be24ac6a9dd47",
        "openAccessPdf": {"url": "https://www.scienceopen.com/document_file/94e7a73e-3f21-4da5-97a4-a5c9ed67ad75/ScienceOpen/051_Giannini.pdf",
        "status": "HYBRID"}}, {"paperId": "902fb60fa3493171b2aa9d485291a54185763a79",
        "openAccessPdf": {"url": "https://pure.coventry.ac.uk/ws/files/4019869/warwickcomb.pdf",
        "status": "GREEN"}}, {"paperId": "3d27bbfcf1ebe7390b5250e677e91179a76569e4",
        "openAccessPdf": {"url": "http://link.aps.org/pdf/10.1103/PhysRevX.7.041002",
        "status": "GOLD"}}, {"paperId": "05c6514c671d380cb2aa02ffa504bb4faca7b92c",
        "openAccessPdf": {"url": "http://arxiv.org/pdf/1806.10116", "status": "GREEN"}},
        {"paperId": "1470b244477529e1627b48c117e78308ede474ab", "openAccessPdf": {"url":
        "https://link.springer.com/content/pdf/10.1007%2Fs11721-016-0126-1.pdf", "status":
        "HYBRID"}}, {"paperId": "751e5ff25e8186a8fd26ee05c4e29a286f650f1b", "openAccessPdf":
        {"url": "https://kar.kent.ac.uk/58183/7/javats.pdf", "status": "GREEN"}},
        {"paperId": "fdadb889d47debf18fe82031af4062b2ccf9de86", "openAccessPdf": {"url":
        "https://www.pnas.org/content/pnas/112/34/10750.full.pdf", "status": "BRONZE"}},
        {"paperId": "dd547a64a179f0f3defd376455f258500d34d4b8", "openAccessPdf": {"url":
        "https://arxiv.org/pdf/1512.06055", "status": "GREEN"}}, {"paperId": "36fe20dd69b2160b3030fab2c103f02ee2816756",
        "openAccessPdf": {"url": "https://www.nature.com/articles/ncomms7971.pdf",
        "status": "GOLD"}}, {"paperId": "b89c8a4a7c89b7933844154655029d8271e8e3a4",
        "openAccessPdf": {"url": "https://biologydirect.biomedcentral.com/track/pdf/10.1186/s13062-016-0124-7",
        "status": "GOLD"}}, {"paperId": "b9e537ee71488bb30de3337b7f55e4c6a44aeb8d",
        "openAccessPdf": {"url": "https://www.pnas.org/content/pnas/111/12/4397.full.pdf",
        "status": "BRONZE"}}]}

        '
    headers:
      Access-Control-Allow-Origin:
      - '*'
      Connection:
      - keep-alive
      Content-Length:
      - '16798'
      Content-Type:
      - application/json
      Date:
      - Sun, 08 Dec 2024 02:19:43 GMT
      Via:
      - 1.1 8364ca155003e291b521198d3285c5d6.cloudfront.net (CloudFront)
      X-Amz-Cf-Id:
      - JK7Co2jzfAwVbuTvijMeuvrk5cLbPp02TMJQz4S0X97zHJN9r4oB0g==
      X-Amz-Cf-Pop:
      - GRU3-P4
      X-Cache:
      - Miss from cloudfront
      x-amz-apigw-id:
      - Cc1J-HXEvHcEJug=
      x-amzn-Remapped-Connection:
      - keep-alive
      x-amzn-Remapped-Content-Length:
      - '16798'
      x-amzn-Remapped-Date:
      - Sun, 08 Dec 2024 02:19:43 GMT
      x-amzn-Remapped-Server:
      - gunicorn
      x-amzn-RequestId:
      - 02da01ad-5e45-45ae-8502-1ed36b8c0ef1
    status:
      code: 200
      message: OK
version: 1
