interactions:
- request:
    body: ''
    headers:
      Accept:
      - '*/*'
      Accept-Encoding:
      - gzip, deflate
      Connection:
      - keep-alive
      Host:
      - api.semanticscholar.org
      User-Agent:
      - python-httpx/0.28.1
    method: GET
    uri: https://api.semanticscholar.org/graph/v1/paper/search?query=turing&fields=title&offset=0&limit=100
  response:
    body:
      string: '{"total": 75717, "offset": 0, "next": 100, "data": [{"paperId": "66e350075a66ca5fd0c09f20d76aaad2c5c6860c",
        "title": "Large Language Models Pass the Turing Test"}, {"paperId": "331fa9e381cd219a3961cd5ef7dda401e8751606",
        "title": "A Turing test of whether AI chatbots are behaviorally similar to
        humans"}, {"paperId": "6b0f06617d9f5256a80ed62d9398acb92a55a6bd", "title":
        "Quantum theory, the Church\u2013Turing principle and the universal quantum
        computer"}, {"paperId": "7cbc2a7843411a1768ab762930707af0a3c33a19", "title":
        "Using DeepSpeed and Megatron to Train Megatron-Turing NLG 530B, A Large-Scale
        Generative Language Model"}, {"paperId": "c1126fbffd6b8547a44c58b192b36b08b18299de",
        "title": "Neural Turing Machines"}, {"paperId": "505c7b471457ac447efdb9abc714247dd10dbef8",
        "title": "People cannot distinguish GPT-4 from a human in a Turing test"},
        {"paperId": "bba46cd6993a9f86d76568afd1aea0aa2132d260", "title": "Turing structuring
        with multiple nanotwins to engineer efficient and stable catalysts for hydrogen
        evolution reaction"}, {"paperId": "9cd1dfaa3c86c71ae74b4c02ebc59cb56c4a396d",
        "title": "Polyamide membranes with nanoscale Turing structures for water purification"},
        {"paperId": "a6a48900de1da2d1a51b1a7d566c01c75977852b", "title": "ChatGPT
        broke the Turing test \u2014 the race is on for new ways to assess AI"}, {"paperId":
        "682918c9c1705907ca1fe3f1207561f403f6ea0e", "title": "Does GPT-4 pass the
        Turing test?"}, {"paperId": "10622a3158756a017a2eea14f87190c236da2915", "title":
        "The Turing Trap: The Promise & Peril of Human-Like Artificial Intelligence"},
        {"paperId": "185ce59eaeec76b9ab1bf96d28d0eae50a47bb11", "title": "The hidden
        order of Turing patterns in arid and semi\u2010arid vegetation ecosystems"},
        {"paperId": "fdbe8d1896b754125c6255f07bd9fecc2ea59127", "title": "Putting
        ChatGPT''s Medical Advice to the (Turing) Test"}, {"paperId": "292da1c4640c105aa5d7919a1ded9a1225c07d4d",
        "title": "Large Language Models and the Reverse Turing Test"}, {"paperId":
        "c4cb90a67f45e7cbacb5286e934b309e89843922", "title": "Attention is Turing-Complete"},
        {"paperId": "b1247e8442aa10e47f41487a88df84579e98f623", "title": "[PDF] Neural
        Networks And Analog Computation Beyond The Turing Limit"}, {"paperId": "b60ab200d24faf6dd20cafe234ccb43e23cf39d2",
        "title": "Diffusiophoresis-enhanced Turing patterns"}, {"paperId": "883e238d17dd486435587ec4a19abaabce3c8a2c",
        "title": "Turing patterns in simplicial complexes."}, {"paperId": "7845bfb55f5ce573b87d77bb76d4d38829b37620",
        "title": "TURINGBENCH: A Benchmark Environment for Turing Test in the Age
        of Neural Text Generation"}, {"paperId": "0e9ac2cfc5a3ecb66eeace720901390f7809ba0a",
        "title": "Statistically Meaningful Approximation: a Case Study on Approximating
        Turing Machines with Transformers"}, {"paperId": "6e297ddd30f2fce82d2146b215dbe22dac22bd2e",
        "title": "Dendrite-Free Zinc-Based Battery with High Areal Capacity via the
        Region-Induced Deposition Effect of Turing Membrane."}, {"paperId": "bf3551dbd18e8e2778b3f8eea9e06f0ce085d4bf",
        "title": "Turing patterns in systems with high-order interactions"}, {"paperId":
        "59d9473f91d386176223fb8be06d9ba5f8fc9744", "title": "Cairo - a Turing-complete
        STARK-friendly CPU architecture"}, {"paperId": "220068be6ef897b2b38db687a922423d6693ed9c",
        "title": "Nobel Turing Challenge: creating the engine for scientific discovery"},
        {"paperId": "d6a59868ed67dc581b3a721824c130490ea74566", "title": "Modern perspectives
        on near-equilibrium analysis of Turing systems"}, {"paperId": "10ab9e16394ff1a4b7046d16bb03d36f5bccd110",
        "title": "The Turing Test is a Thought Experiment"}, {"paperId": "ca8f792d1abe13bb7233a0fa939dc6d5b0d2805d",
        "title": "Turing: A Language for Flexible Probabilistic Inference"}, {"paperId":
        "ee2a011810b5442c28b66f97422564de02a4e319", "title": "Can GPT-3 Pass a Writer\u2019s
        Turing Test?"}, {"paperId": "3694381e74445a8b9f8cb8d373e39626e47191b5", "title":
        "On the Turing Completeness of Modern Neural Network Architectures"}, {"paperId":
        "01fe5977a3ec7d231e72cecef06501590f9f6c1b", "title": "Homogeneous solution
        assembled Turing structures with near zero strain semi-coherence interface"},
        {"paperId": "12c3f818430ffccd1cac64b6e91a750350917d27", "title": "A theory
        of consciousness from a theoretical computer science perspective: Insights
        from the Conscious Turing Machine"}, {"paperId": "3ae0665458a69c0d86e3e1caf04a0ee5d5e466b6",
        "title": "Turing instability of the periodic solutions for reaction-diffusion
        systems with cross-diffusion and the patch model with cross-diffusion-like
        coupling"}, {"paperId": "be1189539a93ad9fb643c6113b4cccc0be486855", "title":
        "Formulation of the normal form of Turing-Hopf bifurcation in partial functional
        differential equations"}, {"paperId": "59165a086cf3c68cae52dc1733cf2b76b48dad87",
        "title": "Studies of Turing pattern formation in zebrafish skin"}, {"paperId":
        "a9e9b6e7603268c924016dc94a79cdb39d85c165", "title": "Bespoke Turing Systems"},
        {"paperId": "339c6e6d46836c173fb6a23b493c724896d4cc70", "title": "Towards
        an Automatic Turing Test: Learning to Evaluate Dialogue Responses"}, {"paperId":
        "473928f705f909a59fe7eee993223c70b58022f8", "title": "Turing pattern design
        principles and their robustness"}, {"paperId": "0fc02e38e34ff9072a7234f1c8c5fa208a46ffc5",
        "title": "Turing Completeness of Bounded-Precision Recurrent Neural Networks"},
        {"paperId": "01baca4fa7ad5d28b95f6f72fe33de9a34633bc6", "title": "Dissecting
        the NVidia Turing T4 GPU via Microbenchmarking"}, {"paperId": "a84f376a8217a10ade875966eb18e1c851cfee66",
        "title": "An efficient Turing-type Ag2Se-CoSe2 multi-interfacial oxygen-evolving
        electrocatalyst."}, {"paperId": "75493a3ed750269a2056b3e39a877bc8b00bc50d",
        "title": "Constructing Turing complete Euler flows in dimension 3"}, {"paperId":
        "0db8f17dc4f51da53bc97a27c201e86c98e7c062", "title": "Turing-Hopf bifurcation
        in a diffusive mussel-algae model with time-fractional-order derivative"},
        {"paperId": "65f8fbcef28d6a8421cb456f32f43fe27cce40cc", "title": "Nanoscale
        Turing patterns in a bismuth monolayer"}, {"paperId": "970db33809cdb96315885222ec80edb56f2fc8b7",
        "title": "Stochastic Turing patterns in a synthetic bacterial population"},
        {"paperId": "5045c73f6b9342a10bc565f4a1c0ed325fda53c3", "title": "Spatiotemporal
        patterns induced by Turing and Turing-Hopf bifurcations in a predator-prey
        system"}, {"paperId": "6cda6bf951da823ab8673e659bdca13b9928ed47", "title":
        "RTX ON \u2013 The NVIDIA TURING GPU"}, {"paperId": "12c00512e99b88bf01bbd8662324fa3b61a73347",
        "title": "TURING-HOPF BIFURCATION IN THE REACTION-DIFFUSION SYSTEM WITH DELAY
        AND APPLICATION TO A DIFFUSIVE PREDATOR-PREY MODEL"}, {"paperId": "74e281384ed8340956989bc2a93f8387458a09bf",
        "title": "Image-based modeling of kidney branching morphogenesis reveals GDNF-RET
        based Turing-type mechanism and pattern-modulating WNT11 feedback"}, {"paperId":
        "3560cfdcd359014f134802328a721a752e33e87b", "title": "Turing patterns of an
        SI epidemic model with cross-diffusion on complex networks"}, {"paperId":
        "3bb868dc65ddd7d3229f8a07f82b152ac304aba2", "title": "From one pattern into
        another: analysis of Turing patterns in heterogeneous domains via WKBJ"},
        {"paperId": "47973a6fb5baa95d494826f8256265a566a2d384", "title": "Turing patterns
        mediated by network topology in homogeneous active systems."}, {"paperId":
        "26e0918fd4b29751bf0652cb247863fd764400e6", "title": "Cross-diffusion induced
        Turing instability for a competition model with saturation effect"}, {"paperId":
        "6a5ea3c1f4256e8987db0de47cf1e787032ca400", "title": "Turing instability in
        the reaction-diffusion network."}, {"paperId": "0b0629b5cd4ae8b08c9175a466f85936ee04bb36",
        "title": "Detection of turing patterns in a three species food chain model
        via amplitude equation"}, {"paperId": "ad9ed24d729c70f0f1a97106da03c60de9e9dbb7",
        "title": "Magic: The Gathering is Turing Complete"}, {"paperId": "bef4ae975a0068484cfa62d3b006991d68716c04",
        "title": "Where does AlphaGo go: from church-turing thesis to AlphaGo thesis
        and beyond"}, {"paperId": "b0e69af8e8f7f2501cb26290e57a8563dba5d178", "title":
        "Simplified and Yet Turing Universal Spiking Neural P Systems with Communication
        on Request"}, {"paperId": "64f47687daaa84ac1fdb1bc2f85c065007163f06", "title":
        "Information Thermodynamics of Turing Patterns."}, {"paperId": "7633d38345730e3ce80b03b290e41d0d1ff87697",
        "title": "Turing Instability and Turing\u2013Hopf Bifurcation in Diffusive
        Schnakenberg Systems with Gene Expression Time Delay"}, {"paperId": "ef2dde81f9c215e0a69dd81ca9222ca178fe42ce",
        "title": "An ancient Turing-like patterning mechanism regulates skin denticle
        development in sharks"}, {"paperId": "97b47dc9bc0da49f83a7ef2e9d2ac461c222dd73",
        "title": "Post-Turing tissue pattern formation: Advent of mechanochemistry"},
        {"paperId": "8ecbcec2351885579bdf9da486c19783448be270", "title": "An updated
        kernel-based Turing model for studying the mechanisms of biological pattern
        formation."}, {"paperId": "9b4dbfffee7f14c5b4a228565ba31ae9ac66e5d2", "title":
        "Alan Turing"}, {"paperId": "fb7dd3ec9cc225ecea26db8608aff004aa5564ed", "title":
        "Spatiotemporal Dynamics of the Diffusive Mussel-Algae Model Near Turing-Hopf
        Bifurcation"}, {"paperId": "b4f8f82d77a8e600faa3eae9071970563748b847", "title":
        "Common Sense, the Turing Test, and the Quest for Real AI"}, {"paperId": "c091bf5bc6e02555b222fe4e15b6108583c14510",
        "title": "Key Features of Turing Systems are Determined Purely by Network
        Topology"}, {"paperId": "1606575fc6f337bde02291a4bf928eb16f58d0e6", "title":
        "Implementing Neural Turing Machines"}, {"paperId": "396fd2321d225100b5a73e72075eba48d8cb5e4a",
        "title": "Turing\u2013Hopf bifurcation and spatiotemporal patterns in a diffusive
        predator\u2013prey system with Crowley\u2013Martin functional response"},
        {"paperId": "fe1077f6b79e14457db77d7477a477f40f87e7e6", "title": "Dynamic
        Neural Turing Machine with Continuous and Discrete Addressing Schemes"}, {"paperId":
        "9def36719b968ff472aecd7abdbed3e88f4e7d8c", "title": "\"The Chemical Basis
        of Morphogenesis\" (1952), by Alan M. Turing"}, {"paperId": "c40a670d24fa44068d22d356eb496e5656ddad51",
        "title": "Turing and Turing\u2013Hopf Bifurcations for a Reaction Diffusion
        Equation with Nonlocal Advection"}, {"paperId": "b688e72337d6ad2fbee7670b1a2d1ce6d9faafb0",
        "title": "Turing-Hopf bifurcation in the reaction-diffusion equations and
        its applications"}, {"paperId": "257d834280b58f62e8fcd18980162e3fc8f98138",
        "title": "Turing Computability"}, {"paperId": "3b662774599a36d4b281f0ea212d149849fd2ca7",
        "title": "The fin-to-limb transition as the re-organization of a Turing pattern"},
        {"paperId": "a80e6b67715d6315cc607a414fd6fe2eb9edc3b2", "title": "Turing\u2013Hopf
        bifurcation analysis of a predator\u2013prey model with herd behavior and
        cross-diffusion"}, {"paperId": "8fb5cf374acbe9fed9939ff2c0aec334b5d26187",
        "title": "Functional Encryption for Turing Machines"}, {"paperId": "902fb60fa3493171b2aa9d485291a54185763a79",
        "title": "Can machines think? A report on Turing test experiments at the Royal
        Society"}, {"paperId": "3d27bbfcf1ebe7390b5250e677e91179a76569e4", "title":
        "Globally stable microresonator Turing pattern formation for coherent high-power
        THz radiation on-chip"}, {"paperId": "1470b244477529e1627b48c117e78308ede474ab",
        "title": "Turing learning: a metric-free approach to inferring behavior and
        its application to swarms"}, {"paperId": "902caefdb9b45fbc363ce6102f8d3e3bfdf74af2",
        "title": "Spatial resonance and Turing\u2013Hopf bifurcations in the Gierer\u2013Meinhardt
        model"}, {"paperId": "751e5ff25e8186a8fd26ee05c4e29a286f650f1b", "title":
        "Java generics are turing complete"}, {"paperId": "3c999256446d684085714db9ea543aedd26c2d4e",
        "title": "Identifying network topologies that can generate turing pattern."},
        {"paperId": "0c4930885dd3318d39f39278686446752bc305b5", "title": "Twitter
        turing test: Identifying social machines"}, {"paperId": "079adfb4ec1a617935f4c74763ed57ba0eedecff",
        "title": "Digit patterning is controlled by a Bmp-Sox9-Wnt Turing network
        modulated by morphogen gradients"}, {"paperId": "c9d7afd65b2127e6f0651bc7e13eeec1897ac8dd",
        "title": "Reinforcement Learning Neural Turing Machines"}, {"paperId": "51e2b3d61d5af53ef9d8f3e5ae98d20bf9d4b084",
        "title": "Indistinguishability Obfuscation for Turing Machines with Unbounded
        Memory"}, {"paperId": "5259755f9c100e220ffaa7e08439c5d34be7757a", "title":
        "Reinforcement Learning Neural Turing Machines - Revised"}, {"paperId": "d3edc100c6577abba414f6c0a16e4c3921e68bff",
        "title": "A visual Turing test for computer vision systems"}, {"paperId":
        "9f12d195c2a336139b98f2301a386be30e2be0c4", "title": "Alan Turing: The Enigma"},
        {"paperId": "368a7958ae2b6b8f30454f4405c0bfa090ec5c22", "title": "Photonic
        information processing beyond Turing: an optoelectronic implementation of
        reservoir computing."}, {"paperId": "660b38b1f340ea0d317294289ef14afbc98acda1",
        "title": "Is pigment patterning in fish skin determined by the Turing mechanism?"},
        {"paperId": "df9b2cf56a90dcfcc22ea4bb07878547eb9744ea", "title": "Simulated
        Penetration Testing: From \"Dijkstra\" to \"Turing Test++\""}, {"paperId":
        "95ca0cde71f0258ca99e920f711084a9a3a5fe4b", "title": "Competitive Distribution
        Estimation: Why is Good-Turing Good"}, {"paperId": "ececf989a13264a455ec2898ed361b1c435b5f0c",
        "title": "Forging patterns and making waves from biology to geology: a commentary
        on Turing (1952) \u2018The chemical basis of morphogenesis\u2019"}, {"paperId":
        "fdadb889d47debf18fe82031af4062b2ccf9de86", "title": "Diverse set of Turing
        nanopatterns coat corneae across insect lineages"}, {"paperId": "dd547a64a179f0f3defd376455f258500d34d4b8",
        "title": "Competing Turing and Faraday Instabilities in Longitudinally Modulated
        Passive Resonators."}, {"paperId": "7d4518f7ba6528967244114a5daaed2884b9b86c",
        "title": "Turing machine universality of the game of life"}, {"paperId": "44f4210b4dfe7b4606b6d18d280e28a6c466ab9b",
        "title": "Investigating the Turing conditions for diffusion-driven instability
        in the presence of a binding immobile substrate."}, {"paperId": "36fe20dd69b2160b3030fab2c103f02ee2816756",
        "title": "Pigment cell movement is not required for generation of Turing patterns
        in zebrafish skin"}, {"paperId": "01dde81924fc37171a93e2f4115b7beec8f349d9",
        "title": "Towards a Historical Notion of \u2018Turing\u2014the Father of Computer
        Science\u2019"}]}

        '
    headers:
      Access-Control-Allow-Origin:
      - '*'
      Connection:
      - keep-alive
      Content-Length:
      - '14284'
      Content-Type:
      - application/json
      Date:
      - Fri, 27 Mar 2026 15:15:30 GMT
      Via:
      - 1.1 5e9a8a957a0d25dd3d906eecd12d0366.cloudfront.net (CloudFront)
      X-Amz-Cf-Id:
      - Q9Ym-OeudNI_f8sHmFFwf02KAlo2vLyydT0FEYi3TwKHqLXD3haDxg==
      X-Amz-Cf-Pop:
      - GRU3-P10
      X-Cache:
      - Miss from cloudfront
      x-amz-apigw-id:
      - a43KoFKePHcEccQ=
      x-amzn-Remapped-Connection:
      - keep-alive
      x-amzn-Remapped-Content-Length:
      - '14284'
      x-amzn-Remapped-Date:
      - Fri, 27 Mar 2026 15:15:30 GMT
      x-amzn-Remapped-Server:
      - gunicorn
      x-amzn-RequestId:
      - 01ba1923-a931-42c3-88bb-f44ae229ef0a
    status:
      code: 200
      message: OK
version: 1
